{
  "type": "newsletter",
  "page": 2,
  "page_size": 10,
  "total_items": 20,
  "total_pages": 2,
  "updated_at": "2025-10-10T12:24:53Z",
  "items": [
    {
      "id": "wzSUiWk3yl7RhjrZeBkw",
      "slug": "samson-mow",
      "title": "從比特幣城市到國家儲備：Samson Mow 的區塊鏈問題解決策略",
      "pub_date": "2024-11-12T01:00:00Z",
      "link": "https://paragraph.com/@tw3/samson-mow",
      "cover": "https://paragraph.xyz/editor/youtube/play.png",
      "has_voiceover": false,
      "tags": [],
      "permalink": "#newsletter/samson-mow"
    },
    {
      "id": "vBhmlCDvPAS0QBIybI4l",
      "slug": "the-great-reset-and-the-rise-of-bitcoin-2022-1",
      "title": "破解比特幣耗能爭議——問題、解決方案與未來發展",
      "pub_date": "2024-11-11T01:00:00Z",
      "link": "https://paragraph.com/@tw3/the-great-reset-and-the-rise-of-bitcoin-2022-1",
      "cover": "https://paragraph.xyz/editor/youtube/play.png",
      "has_voiceover": false,
      "tags": [],
      "permalink": "#newsletter/the-great-reset-and-the-rise-of-bitcoin-2022-1"
    },
    {
      "id": "fU9YfjstB0Qjl1n1JTSm",
      "slug": "bitcoin-beyond-the-bubble-2018",
      "title": "數位貨幣革命：比特幣如何改變全球金融",
      "pub_date": "2024-11-08T01:00:00Z",
      "link": "https://paragraph.com/@tw3/bitcoin-beyond-the-bubble-2018",
      "cover": "https://paragraph.xyz/editor/youtube/play.png",
      "has_voiceover": false,
      "tags": [],
      "permalink": "#newsletter/bitcoin-beyond-the-bubble-2018"
    },
    {
      "id": "Z0Q7JDCJbvp4fGD6Pe9b",
      "slug": "the-rise-and-rise-of-bitcoin-2014",
      "title": "比特幣的崛起：數位貨幣從無名到主流",
      "pub_date": "2024-11-07T01:00:00Z",
      "link": "https://paragraph.com/@tw3/the-rise-and-rise-of-bitcoin-2014",
      "cover": "https://paragraph.xyz/editor/youtube/play.png",
      "has_voiceover": false,
      "tags": [],
      "permalink": "#newsletter/the-rise-and-rise-of-bitcoin-2014"
    },
    {
      "id": "sC4d38oNo9YfW6CNEasR",
      "slug": "pow-vs-pos-blockchain-consensus",
      "title": "從PoW到PoS，區塊鏈如何透過共識機制解決信任問題？",
      "pub_date": "2024-11-06T01:00:00Z",
      "link": "https://paragraph.com/@tw3/pow-vs-pos-blockchain-consensus",
      "cover": "https://paragraph.xyz/editor/callout/information-icon.png",
      "has_voiceover": false,
      "tags": [],
      "permalink": "#newsletter/pow-vs-pos-blockchain-consensus"
    },
    {
      "id": "SJoTgvB3LMkRRQWHgN8x",
      "slug": "cardano-midnight-privatechain",
      "title": "邁向安全且合規的區塊鏈環境：Cardano ($ADA)與Midnight ($DUST)的隱私實踐",
      "pub_date": "2024-11-05T01:00:00Z",
      "link": "https://paragraph.com/@tw3/cardano-midnight-privatechain",
      "cover": "https://paragraph.xyz/editor/youtube/play.png",
      "has_voiceover": false,
      "tags": [
        "zh",
        "cardano",
        "midnight",
        "blockchain"
      ],
      "permalink": "#newsletter/cardano-midnight-privatechain"
    },
    {
      "id": "QotA6emZzarv9aQW1OsT",
      "slug": "zkp",
      "title": "隱私 vs. 透明：區塊鏈中的零知識證明與其他解決方案",
      "pub_date": "2024-11-04T01:00:00Z",
      "link": "https://paragraph.com/@tw3/zkp",
      "cover": "https://paragraph.xyz/editor/youtube/play.png",
      "has_voiceover": false,
      "tags": [],
      "permalink": "#newsletter/zkp"
    },
    {
      "id": "26JjIMsChu2X2Fy4iSM1",
      "slug": "cardano-summit-2023-key-takeaways",
      "title": "2023年後的Cardano ($ADA)：解決擴展性、治理與合規問題的策略",
      "pub_date": "2024-11-01T01:00:03Z",
      "link": "https://paragraph.com/@tw3/cardano-summit-2023-key-takeaways",
      "cover": "https://paragraph.xyz/editor/callout/information-icon.png",
      "has_voiceover": false,
      "tags": [],
      "permalink": "#newsletter/cardano-summit-2023-key-takeaways"
    },
    {
      "id": "tMKWc4oQZLOk0LBlRRt1",
      "slug": "cardano-scalability-governance-interoperability",
      "title": "Cardano ($ADA)：從過去到未來的技術演進與挑戰解析 2023",
      "pub_date": "2024-10-31T01:00:00Z",
      "link": "https://paragraph.com/@tw3/cardano-scalability-governance-interoperability",
      "cover": "https://paragraph.xyz/editor/youtube/play.png",
      "has_voiceover": false,
      "tags": [
        "zh",
        "hydra",
        "minotaur",
        "midnight"
      ],
      "permalink": "#newsletter/cardano-scalability-governance-interoperability"
    },
    {
      "id": "TjefpxoKws3GSqefKP8y",
      "slug": "cardano-surviving-2022-crypto-winter",
      "title": "2022 年的區塊鏈轉折點：從熊市中看 Cardano ($ADA) 的穩健策略",
      "pub_date": "2024-10-30T01:00:00Z",
      "link": "https://paragraph.com/@tw3/cardano-surviving-2022-crypto-winter",
      "cover": "https://paragraph.xyz/editor/callout/information-icon.png",
      "has_voiceover": false,
      "tags": [],
      "permalink": "#newsletter/cardano-surviving-2022-crypto-winter"
    }
  ]
}