{
  "type": "newsletter",
  "page": 1,
  "page_size": 10,
  "total_items": 20,
  "total_pages": 2,
  "updated_at": "2025-10-10T11:41:31Z",
  "items": [
    {
      "id": "WXZ1J8aJAOjtPQECt073",
      "slug": "taiwan-crypto-cashout-options",
      "title": "為何選擇密碼貨幣支付卡作為主要出金管道？",
      "pub_date": "2024-12-26T10:04:08Z",
      "link": "https://paragraph.com/@tw3/taiwan-crypto-cashout-options",
      "cover": "https://paragraph.xyz/editor/callout/information-icon.png",
      "has_voiceover": false,
      "tags": [],
      "permalink": "#newsletter/taiwan-crypto-cashout-options"
    },
    {
      "id": "PNvunRZpdohG6GCJOqTS",
      "slug": "usdt-stablecoin-dollar-dominance",
      "title": "穩定幣 USDT 的應用、爭議與美元全球影響力的延伸",
      "pub_date": "2024-11-25T12:43:10Z",
      "link": "https://paragraph.com/@tw3/usdt-stablecoin-dollar-dominance",
      "cover": "https://paragraph.xyz/editor/youtube/play.png",
      "has_voiceover": false,
      "tags": [],
      "permalink": "#newsletter/usdt-stablecoin-dollar-dominance"
    },
    {
      "id": "ksiDcCCPY8zJrFccmXJy",
      "slug": "tokenization",
      "title": "代幣化：未來經濟系統的驅動力？",
      "pub_date": "2024-11-22T01:00:00Z",
      "link": "https://paragraph.com/@tw3/tokenization",
      "cover": "https://paragraph.xyz/editor/youtube/play.png",
      "has_voiceover": false,
      "tags": [],
      "permalink": "#newsletter/tokenization"
    },
    {
      "id": "leITy6ayQYdIzPgZow0M",
      "slug": "bitcoin-business-adoption",
      "title": "企業財務新時代：大企業與中小企業如何通過比特幣保值與增值",
      "pub_date": "2024-11-21T01:00:00Z",
      "link": "https://paragraph.com/@tw3/bitcoin-business-adoption",
      "cover": "https://paragraph.xyz/editor/youtube/play.png",
      "has_voiceover": false,
      "tags": [],
      "permalink": "#newsletter/bitcoin-business-adoption"
    },
    {
      "id": "jJGQZ6e7U95U2yDlGvAe",
      "slug": "the-system-of-money",
      "title": "從金融危機到財富不平等：解析債務驅動的經濟困局",
      "pub_date": "2024-11-20T01:00:00Z",
      "link": "https://paragraph.com/@tw3/the-system-of-money",
      "cover": "https://paragraph.xyz/editor/youtube/play.png",
      "has_voiceover": false,
      "tags": [],
      "permalink": "#newsletter/the-system-of-money"
    },
    {
      "id": "MPu9sJxO3xCD8mTf4yyL",
      "slug": "best-crypto-debit-cards-taiwan-2024",
      "title": "2024年台灣密碼貨幣支付卡全面評測",
      "pub_date": "2024-11-19T01:00:00Z",
      "link": "https://paragraph.com/@tw3/best-crypto-debit-cards-taiwan-2024",
      "cover": "https://paragraph.xyz/editor/callout/information-icon.png",
      "has_voiceover": false,
      "tags": [],
      "permalink": "#newsletter/best-crypto-debit-cards-taiwan-2024"
    },
    {
      "id": "oOWAkMopicD9Ov3Xml1V",
      "slug": "btc-lightning",
      "title": "閃電網路：比特幣的小額支付革命",
      "pub_date": "2024-11-18T01:00:00Z",
      "link": "https://paragraph.com/@tw3/btc-lightning",
      "cover": "https://paragraph.xyz/editor/callout/information-icon.png",
      "has_voiceover": false,
      "tags": [],
      "permalink": "#newsletter/btc-lightning"
    },
    {
      "id": "iyiWGm3TsVZjBSsNIART",
      "slug": "zero-knowledge-proof-senario-use-case",
      "title": "零知識證明技術：保護隱私與提升區塊鏈效能的關鍵應用場景",
      "pub_date": "2024-11-15T01:00:00Z",
      "link": "https://paragraph.com/@tw3/zero-knowledge-proof-senario-use-case",
      "cover": "https://paragraph.xyz/editor/youtube/play.png",
      "has_voiceover": false,
      "tags": [],
      "permalink": "#newsletter/zero-knowledge-proof-senario-use-case"
    },
    {
      "id": "k0csTumY6d86dxUH7xc5",
      "slug": "blockchain-crypto-scam-or-revolution",
      "title": "區塊鏈與密碼貨幣只是一場騙局？從技術泡沫週期分析機會與挑戰",
      "pub_date": "2024-11-14T01:00:00Z",
      "link": "https://paragraph.com/@tw3/blockchain-crypto-scam-or-revolution",
      "cover": "https://paragraph.xyz/editor/youtube/play.png",
      "has_voiceover": false,
      "tags": [],
      "permalink": "#newsletter/blockchain-crypto-scam-or-revolution"
    },
    {
      "id": "7XGabjAZuZHonSd1HGUD",
      "slug": "michael-saylor-microstrategy-1",
      "title": "比特幣作為公司資本儲備：Michael Saylor 如何改變 MicroStrategy 的財務策略",
      "pub_date": "2024-11-13T01:00:00Z",
      "link": "https://paragraph.com/@tw3/michael-saylor-microstrategy-1",
      "cover": "https://paragraph.xyz/editor/youtube/play.png",
      "has_voiceover": false,
      "tags": [],
      "permalink": "#newsletter/michael-saylor-microstrategy-1"
    }
  ]
}