{
  "type": "newsletter",
  "page": 2,
  "page_size": 10,
  "total_items": 20,
  "total_pages": 2,
  "updated_at": "2025-10-10T11:41:30Z",
  "items": [
    {
      "id": "boD8ZdIbNC4mePHeDsxF",
      "slug": "ecpay",
      "title": "聽眾抖內設定：ECPay 綠界科技 — 實況主收款",
      "pub_date": "2022-01-15T07:39:37Z",
      "link": "https://paragraph.com/@wwhowbuhow/ecpay",
      "cover": "https://storage.googleapis.com/papyrus_images/56ca7097492fc1a44b3bd5d904f5d5f7.png",
      "has_voiceover": false,
      "tags": [],
      "permalink": "#newsletter/ecpay"
    },
    {
      "id": "IMXyyqVdMUdzOAvmfzMc",
      "slug": "podcaster2creator",
      "title": "從 Podcaster 起步，踏上「多平台創作人」之路",
      "pub_date": "2021-12-24T16:48:30Z",
      "link": "https://paragraph.com/@wwhowbuhow/podcaster2creator",
      "cover": "https://storage.googleapis.com/papyrus_images/db13b8e6475df8ec497da99abdf89ad4.jpg",
      "has_voiceover": false,
      "tags": [],
      "permalink": "#newsletter/podcaster2creator"
    },
    {
      "id": "7pTug99QJblm265w2nb9",
      "slug": "e8-83-96-e9-ac-b1-e4-b8-8d-e5-9b-89-e5-97-a6-ef-bc-8c-e4-b8-80-e6-93-8a-e6-8a-8a",
      "title": "胖鬱不囉嗦，一擊把我 K.O.、推薦歌曲：好樂團《蒸發》、推薦小說：《無差別愛人》",
      "pub_date": "2021-12-15T05:42:26Z",
      "link": "https://paragraph.com/@wwhowbuhow/胖鬱不囉嗦，一擊把我-ko、推薦歌曲：好樂團《蒸發》、推薦小說：《無差別愛人》",
      "cover": "https://storage.googleapis.com/papyrus_images/3d4e0012c321b6a71638c39caa765229.png",
      "has_voiceover": false,
      "tags": [],
      "permalink": "#newsletter/e8-83-96-e9-ac-b1-e4-b8-8d-e5-9b-89-e5-97-a6-ef-bc-8c-e4-b8-80-e6-93-8a-e6-8a-8a"
    },
    {
      "id": "iyUx32CcoaCuGacnfPHw",
      "slug": "soul",
      "title": "推薦單集：[小鬱好不好] 跟心理師聊電影《靈魂急轉彎》ft. 草木談心",
      "pub_date": "2021-11-25T13:15:05Z",
      "link": "https://paragraph.com/@wwhowbuhow/soul",
      "cover": "https://storage.googleapis.com/papyrus_images/a16ef38d11a34505eab3d1fb644662c8.png",
      "has_voiceover": false,
      "tags": [],
      "permalink": "#newsletter/soul"
    },
    {
      "id": "udQgpLVgBC1ch8wqlq0d",
      "slug": "e5-b0-8f-e8-8f-9c-e9-9b-9e-e9-96-8b-e5-a7-8b-e7-b7-b4-e8-82-8c-e3-80-81-e8-a6-81",
      "title": "小菜雞開始練肌、要知道換季總是讓人愛睏，你又何苦強打精神？",
      "pub_date": "2021-11-08T04:07:44Z",
      "link": "https://paragraph.com/@wwhowbuhow/小菜雞開始練肌、要知道換季總是讓人愛睏，你又何苦強打精神？",
      "cover": "https://storage.googleapis.com/papyrus_images/398e5e344df3d863a49803acd7ba9b69.png",
      "has_voiceover": false,
      "tags": [],
      "permalink": "#newsletter/e5-b0-8f-e8-8f-9c-e9-9b-9e-e9-96-8b-e5-a7-8b-e7-b7-b4-e8-82-8c-e3-80-81-e8-a6-81"
    },
    {
      "id": "o1dSSt8uEQME8BjnHYAx",
      "slug": "kkbox-studio--e9-8c-84-e9-9f-b3-e5-ae-a4-e9-96-8b-e7-ae-b1-ef-bc-81",
      "title": "KKBOX STUDIO 錄音室開箱！",
      "pub_date": "2021-10-17T11:46:35Z",
      "link": "https://paragraph.com/@wwhowbuhow/kkbox-studio-錄音室開箱！",
      "cover": "https://storage.googleapis.com/papyrus_images/97972eeb505e5d421063449370ac2309.jpg",
      "has_voiceover": false,
      "tags": [],
      "permalink": "#newsletter/kkbox-studio--e9-8c-84-e9-9f-b3-e5-ae-a4-e9-96-8b-e7-ae-b1-ef-bc-81"
    },
    {
      "id": "oiKrgcPfvrBjJtpky4Ri",
      "slug": "e3-80-8a-e5-a6-82-e4-bd-95-e5-81-9a-e5-87-ba-e7-88-86-e7-b4-85podcast-ef-bc-9f-e",
      "title": "《如何做出爆紅Podcast？》Clubhouse 線上讀書會",
      "pub_date": "2021-10-14T04:52:43Z",
      "link": "https://paragraph.com/@wwhowbuhow/《如何做出爆紅podcast？》clubhouse-線上讀書會",
      "cover": "https://storage.googleapis.com/papyrus_images/ff340f1e97b4a12d2a29b87727d13141.png",
      "has_voiceover": false,
      "tags": [],
      "permalink": "#newsletter/e3-80-8a-e5-a6-82-e4-bd-95-e5-81-9a-e5-87-ba-e7-88-86-e7-b4-85podcast-ef-bc-9f-e"
    },
    {
      "id": "W3QOb435ZCUOfoGIjOEP",
      "slug": "e8-ab-96-e6-9b-ac-e5-a4-aa-e9-99-bd-e4-b9-8b-e5-bf-85-e8-a6-81-e3-80-81-e8-83-96",
      "title": "論曬太陽之必要、胖胖瘦瘦",
      "pub_date": "2021-10-12T15:41:31Z",
      "link": "https://paragraph.com/@wwhowbuhow/論曬太陽之必要、胖胖瘦瘦",
      "cover": "https://storage.googleapis.com/papyrus_images/68f938f203211386e1f77fcaa9e3f7e3.png",
      "has_voiceover": false,
      "tags": [],
      "permalink": "#newsletter/e8-ab-96-e6-9b-ac-e5-a4-aa-e9-99-bd-e4-b9-8b-e5-bf-85-e8-a6-81-e3-80-81-e8-83-96"
    },
    {
      "id": "zivfnEOg3oIWr2psDnhj",
      "slug": "e7-95-b6-e8-a2-ab-e8-83-96-e9-ac-b1-e8-b8-a9-e6-89-81-e6-88-90-e7-88-9b-e6-b3-a5",
      "title": "當被胖鬱踩扁成爛泥，我成為一坨會呼吸的肉、推薦書：《神奇的慢呼吸》、私房特調汽水",
      "pub_date": "2021-09-28T13:53:54Z",
      "link": "https://paragraph.com/@wwhowbuhow/當被胖鬱踩扁成爛泥，我成為一坨會呼吸的肉、推薦書：《神奇的慢呼吸》、私房特調汽水",
      "cover": "https://storage.googleapis.com/papyrus_images/99777d16a552f6311179c931f402e6da.png",
      "has_voiceover": false,
      "tags": [],
      "permalink": "#newsletter/e7-95-b6-e8-a2-ab-e8-83-96-e9-ac-b1-e8-b8-a9-e6-89-81-e6-88-90-e7-88-9b-e6-b3-a5"
    },
    {
      "id": "XC3J0YSzlbE2MLZNilwK",
      "slug": "e6-84-9b-e6-9b-b8-e4-ba-ba-e5-92-8c-e5-b0-8f-e9-8e-ae-e6-9b-b8-e5-ba-97-ef-bc-9a",
      "title": "愛書人和小鎮書店：實體書店無可取代的濃濃人情味",
      "pub_date": "2021-05-14T13:26:29Z",
      "link": "https://paragraph.com/@wwhowbuhow/愛書人和小鎮書店：實體書店無可取代的濃濃人情味",
      "cover": "https://storage.googleapis.com/papyrus_images/d8841b28754d7843039433148c7ff5ed.png",
      "has_voiceover": false,
      "tags": [],
      "permalink": "#newsletter/e6-84-9b-e6-9b-b8-e4-ba-ba-e5-92-8c-e5-b0-8f-e9-8e-ae-e6-9b-b8-e5-ba-97-ef-bc-9a"
    }
  ]
}