{
  "type": "newsletter",
  "page": 1,
  "page_size": 10,
  "total_items": 20,
  "total_pages": 2,
  "updated_at": "2025-10-10T15:08:02+08:00",
  "items": [
    {
      "id": "https://taiweb3.substack.com/p/taiwan-crypto-cashout-options",
      "slug": "taiwan-crypto-cashout-options",
      "title": "為何選擇密碼貨幣支付卡作為主要出金管道？",
      "pub_date": "2024-12-26T18:04:08+08:00",
      "link": "https://taiweb3.substack.com/p/taiwan-crypto-cashout-options",
      "cover": "https://substackcdn.com/image/fetch/$s_!HthM!,w_1456,c_limit,f_auto,q_auto:good,fl_progressive:steep/https%3A%2F%2Fsubstack-post-media.s3.amazonaws.com%2Fpublic%2Fimages%2F4ec6c215-cdc0-46b3-878e-e79a59128b63_1344x768.webp",
      "has_voiceover": false,
      "tags": [],
      "permalink": "#newsletter/taiwan-crypto-cashout-options"
    },
    {
      "id": "https://taiweb3.substack.com/p/usdt-stablecoin-dollar-dominance",
      "slug": "usdt-stablecoin-dollar-dominance",
      "title": "穩定幣 USDT 的應用、爭議與美元全球影響力的延伸",
      "pub_date": "2024-11-25T20:43:10+08:00",
      "link": "https://taiweb3.substack.com/p/usdt-stablecoin-dollar-dominance",
      "cover": "https://substackcdn.com/image/fetch/$s_!GN9a!,w_1456,c_limit,f_auto,q_auto:good,fl_progressive:steep/https%3A%2F%2Fsubstack-post-media.s3.amazonaws.com%2Fpublic%2Fimages%2F7aef7400-5474-4ff2-b807-a341f74ae8c6_1344x768.webp",
      "has_voiceover": false,
      "tags": [],
      "permalink": "#newsletter/usdt-stablecoin-dollar-dominance"
    },
    {
      "id": "https://taiweb3.substack.com/p/tokenization",
      "slug": "tokenization",
      "title": "代幣化：未來經濟系統的驅動力？",
      "pub_date": "2024-11-22T09:00:00+08:00",
      "link": "https://taiweb3.substack.com/p/tokenization",
      "cover": "https://substackcdn.com/image/fetch/$s_!rZM2!,w_1456,c_limit,f_auto,q_auto:good,fl_progressive:steep/https%3A%2F%2Fsubstack-post-media.s3.amazonaws.com%2Fpublic%2Fimages%2F6f8a3c4b-913c-44f4-91ea-91f0018e763f_1344x768.webp",
      "has_voiceover": false,
      "tags": [],
      "permalink": "#newsletter/tokenization"
    },
    {
      "id": "https://taiweb3.substack.com/p/bitcoin-business-adoption",
      "slug": "bitcoin-business-adoption",
      "title": "企業財務新時代：大企業與中小企業如何通過比特幣保值與增值",
      "pub_date": "2024-11-21T09:00:00+08:00",
      "link": "https://taiweb3.substack.com/p/bitcoin-business-adoption",
      "cover": "https://substackcdn.com/image/fetch/$s_!YJA8!,w_1456,c_limit,f_auto,q_auto:good,fl_progressive:steep/https%3A%2F%2Fsubstack-post-media.s3.amazonaws.com%2Fpublic%2Fimages%2F6f044a34-0906-4156-821e-7debce3dc8b2_1344x768.webp",
      "has_voiceover": false,
      "tags": [],
      "permalink": "#newsletter/bitcoin-business-adoption"
    },
    {
      "id": "https://taiweb3.substack.com/p/the-system-of-money",
      "slug": "the-system-of-money",
      "title": "從金融危機到財富不平等：解析債務驅動的經濟困局",
      "pub_date": "2024-11-20T09:00:00+08:00",
      "link": "https://taiweb3.substack.com/p/the-system-of-money",
      "cover": "https://substackcdn.com/image/fetch/$s_!gBuN!,w_1456,c_limit,f_auto,q_auto:good,fl_progressive:steep/https%3A%2F%2Fsubstack-post-media.s3.amazonaws.com%2Fpublic%2Fimages%2F86a8be7a-7ba4-4bcf-8707-f75f4594c798_1344x768.webp",
      "has_voiceover": false,
      "tags": [],
      "permalink": "#newsletter/the-system-of-money"
    },
    {
      "id": "https://taiweb3.substack.com/p/best-crypto-debit-cards-taiwan-2024",
      "slug": "best-crypto-debit-cards-taiwan-2024",
      "title": "2024年台灣密碼貨幣支付卡全面評測",
      "pub_date": "2024-11-19T09:00:00+08:00",
      "link": "https://taiweb3.substack.com/p/best-crypto-debit-cards-taiwan-2024",
      "cover": "https://substackcdn.com/image/fetch/$s_!4rlR!,w_1456,c_limit,f_auto,q_auto:good,fl_progressive:steep/https%3A%2F%2Fsubstack-post-media.s3.amazonaws.com%2Fpublic%2Fimages%2Fb9b9164c-5177-4131-bb7b-0462b0fb0eda_1344x768.webp",
      "has_voiceover": false,
      "tags": [],
      "permalink": "#newsletter/best-crypto-debit-cards-taiwan-2024"
    },
    {
      "id": "https://taiweb3.substack.com/p/btc-lightning",
      "slug": "btc-lightning",
      "title": "閃電網路：比特幣的小額支付革命",
      "pub_date": "2024-11-18T09:00:00+08:00",
      "link": "https://taiweb3.substack.com/p/btc-lightning",
      "cover": "https://substackcdn.com/image/fetch/$s_!CNbm!,w_1456,c_limit,f_auto,q_auto:good,fl_progressive:steep/https%3A%2F%2Fsubstack-post-media.s3.amazonaws.com%2Fpublic%2Fimages%2Fab9cb6c7-7a88-4f20-aded-f99707182ed1_1344x768.webp",
      "has_voiceover": false,
      "tags": [],
      "permalink": "#newsletter/btc-lightning"
    },
    {
      "id": "https://taiweb3.substack.com/p/zero-knowledge-proof-senario-use-case",
      "slug": "zero-knowledge-proof-senario-use-case",
      "title": "零知識證明技術：保護隱私與提升區塊鏈效能的關鍵應用場景",
      "pub_date": "2024-11-15T09:00:00+08:00",
      "link": "https://taiweb3.substack.com/p/zero-knowledge-proof-senario-use-case",
      "cover": "https://substackcdn.com/image/fetch/$s_!_7aq!,w_1456,c_limit,f_auto,q_auto:good,fl_progressive:steep/https%3A%2F%2Fsubstack-post-media.s3.amazonaws.com%2Fpublic%2Fimages%2F19c3a1e4-9196-4b71-9906-d9e51229034c_1344x768.webp",
      "has_voiceover": false,
      "tags": [],
      "permalink": "#newsletter/zero-knowledge-proof-senario-use-case"
    },
    {
      "id": "https://taiweb3.substack.com/p/blockchain-crypto-scam-or-revolution",
      "slug": "blockchain-crypto-scam-or-revolution",
      "title": "區塊鏈與密碼貨幣只是一場騙局？從技術泡沫週期分析機會與挑戰",
      "pub_date": "2024-11-14T09:00:00+08:00",
      "link": "https://taiweb3.substack.com/p/blockchain-crypto-scam-or-revolution",
      "cover": "https://substackcdn.com/image/fetch/$s_!jL8s!,w_1456,c_limit,f_auto,q_auto:good,fl_progressive:steep/https%3A%2F%2Fsubstack-post-media.s3.amazonaws.com%2Fpublic%2Fimages%2Fdf682129-cb02-43cd-ac69-fa311bb9beca_1344x768.webp",
      "has_voiceover": false,
      "tags": [],
      "permalink": "#newsletter/blockchain-crypto-scam-or-revolution"
    },
    {
      "id": "https://taiweb3.substack.com/p/michael-saylor-microstrategy-1",
      "slug": "michael-saylor-microstrategy-1",
      "title": "比特幣作為公司資本儲備：Michael Saylor 如何改變 MicroStrategy 的財務策略",
      "pub_date": "2024-11-13T09:00:00+08:00",
      "link": "https://taiweb3.substack.com/p/michael-saylor-microstrategy-1",
      "cover": "https://substackcdn.com/image/fetch/$s_!qtnX!,w_256,c_limit,f_auto,q_auto:good,fl_progressive:steep/https%3A%2F%2Fsubstack-post-media.s3.amazonaws.com%2Fpublic%2Fimages%2F9200ab35-d9cb-44c9-aea2-623f88d32ba1_1024x1024.png",
      "has_voiceover": false,
      "tags": [],
      "permalink": "#newsletter/michael-saylor-microstrategy-1"
    }
  ]
}