{
  "type": "podcast",
  "show": {
    "id": "show",
    "title": "喂喂你還好不好",
    "author": "雞蛋糕 GCAKE",
    "image": "https://image.firstory-cdn.me/Avatar/ck60hb2c90wp50873k099tilh/1752846373303.jpg",
    "link": "https://wwhowbuhow.firstory.io",
    "language": "zh-Hant"
  },
  "page": 13,
  "page_size": 10,
  "total_items": 196,
  "total_pages": 20,
  "updated_at": "2025-10-11T12:21:13Z",
  "items": [
    {
      "slug": "2020Q3e22",
      "id": "[object Object]",
      "title": "[小鬱好不好] 《小柔的最後一天》體驗式桌遊，開桌！ feat. 公務信箱 der 多魚、切心和C大",
      "pub_date": "2020-09-25T10:01:15Z",
      "duration": "37:08",
      "image": "https://file.cdn.firstory.me/Image/ck60hb2c90wp50873k099tilh/1600339839584.jpeg",
      "audio": {
        "url": "https://m.cdn.firstory.me/track/ck60hb2c90wp50873k099tilh/ckfi2s0ga8u6u08362vepxd63/https%3A%2F%2Fd3mww1g1pfq2pt.cloudfront.net%2FRecord%2Fck60hb2c90wp50873k099tilh%2F1600339839584.m4a",
        "type": "audio/x-m4a"
      },
      "permalink": "#podcast/objectObject"
    },
    {
      "slug": "2020Q3e21",
      "id": "[object Object]",
      "title": "《PODCAST小學演講比賽》 憂憂子的第一天",
      "pub_date": "2020-09-23T10:54:59Z",
      "duration": "07:32",
      "image": "https://file.cdn.firstory.me/Image/ck60hb2c90wp50873k099tilh/1600858496722.png",
      "audio": {
        "url": "https://m.cdn.firstory.me/track/ck60hb2c90wp50873k099tilh/ckff9tfbq5dcl0836ho8za6dz/https%3A%2F%2Fd3mww1g1pfq2pt.cloudfront.net%2FRecord%2Fck60hb2c90wp50873k099tilh%2F1600858496722.m4a",
        "type": "audio/x-m4a"
      },
      "permalink": "#podcast/objectObject"
    },
    {
      "slug": "2020Q3e20",
      "id": "[object Object]",
      "title": "[說書好不好] 《沒關係，是悲傷啊！》－引言",
      "pub_date": "2020-09-22T10:01:23Z",
      "duration": "11:20",
      "image": "https://file.cdn.firstory.me/Image/ck60hb2c90wp50873k099tilh/1600342122838.png",
      "audio": {
        "url": "https://m.cdn.firstory.me/track/ck60hb2c90wp50873k099tilh/ckfdsgnch64fi0897tdriw6cy/https%3A%2F%2Fd3mww1g1pfq2pt.cloudfront.net%2FRecord%2Fck60hb2c90wp50873k099tilh%2F1600325400723.m4a?v=1600852859408",
        "type": "audio/x-m4a"
      },
      "permalink": "#podcast/objectObject"
    },
    {
      "slug": "2020Q3e19",
      "id": "[object Object]",
      "title": "[說書好不好] 雞蛋糕愛看書-5： Andrew Solomon《正午惡魔》+《背離親緣》套書－直視疾病與親情的細膩觀察，以及節目和Readmoo開啟合作的小故事 (Readmoo讀墨贊助電子書)",
      "pub_date": "2020-09-18T10:01:25Z",
      "duration": "33:33",
      "image": "https://file.cdn.firstory.me/Image/ck60hb2c90wp50873k099tilh/1600321963944.png",
      "audio": {
        "url": "https://m.cdn.firstory.me/track/ck60hb2c90wp50873k099tilh/ckf82pa7k1qwa0897wsniz03z/https%3A%2F%2Fd3mww1g1pfq2pt.cloudfront.net%2FRecord%2Fck60hb2c90wp50873k099tilh%2F1600321963944.m4a",
        "type": "audio/x-m4a"
      },
      "permalink": "#podcast/objectObject"
    },
    {
      "slug": "2020Q3e18",
      "id": "[object Object]",
      "title": "[小鬱好不好] 你眼中的小鬱-2：吃下草莓挫冰的那口「哇！」，各種莓生都是美好的存在 feat.《Yo! What's Up 在幹嘛》Kelly",
      "pub_date": "2020-09-11T10:01:25Z",
      "duration": "28:32",
      "image": "https://file.cdn.firstory.me/Image/ck60hb2c90wp50873k099tilh/1596706953375.png",
      "audio": {
        "url": "https://m.cdn.firstory.me/track/ck60hb2c90wp50873k099tilh/ckey2mbpb18e708393ua1vi6e/https%3A%2F%2Fd3mww1g1pfq2pt.cloudfront.net%2FRecord%2Fck60hb2c90wp50873k099tilh%2F1596706953375.m4a",
        "type": "audio/x-m4a"
      },
      "permalink": "#podcast/objectObject"
    },
    {
      "slug": "2020Q3e17",
      "id": "[object Object]",
      "title": "[語音信箱] 0908 快問快答聊不夠－詳答都在這！(內含超失控的棒球迷人生回憶錄)",
      "pub_date": "2020-09-08T11:06:02Z",
      "duration": "48:30",
      "image": "https://file.cdn.firstory.me/Image/ck60hb2c90wp50873k099tilh/1599563954502.png",
      "audio": {
        "url": "https://m.cdn.firstory.me/track/ck60hb2c90wp50873k099tilh/cketuluz9068e0839119116ut/https%3A%2F%2Fd3mww1g1pfq2pt.cloudfront.net%2FRecord%2Fck60hb2c90wp50873k099tilh%2F1599563154814.m4a",
        "type": "audio/x-m4a"
      },
      "permalink": "#podcast/objectObject"
    },
    {
      "slug": "2020Q3e16",
      "id": "[object Object]",
      "title": "[語音信箱] 0908 快問快答－每天花多少時間收聽podcast？喜歡什麼台南美食？支持哪支棒球隊？",
      "pub_date": "2020-09-08T09:12:37Z",
      "duration": "02:15",
      "image": "https://file.cdn.firstory.me/Image/ck60hb2c90wp50873k099tilh/1599563935358.png",
      "audio": {
        "url": "https://m.cdn.firstory.me/track/ck60hb2c90wp50873k099tilh/cketqk0e9w6nc0839kg5kjtcu/https%3A%2F%2Fd3mww1g1pfq2pt.cloudfront.net%2FRecord%2Fck60hb2c90wp50873k099tilh%2F1599556356296.m4a",
        "type": "audio/x-m4a"
      },
      "permalink": "#podcast/objectObject"
    },
    {
      "slug": "2020Q3e15",
      "id": "[object Object]",
      "title": "[小鬱好不好] 台灣合格心理諮商所查詢網站",
      "pub_date": "2020-09-04T10:01:23Z",
      "duration": "17:33",
      "image": "https://file.cdn.firstory.me/Image/ck60hb2c90wp50873k099tilh/1596699059950.jpeg",
      "audio": {
        "url": "https://m.cdn.firstory.me/track/ck60hb2c90wp50873k099tilh/ckeo2jbbsw7l70839wsnv43xi/https%3A%2F%2Fd3mww1g1pfq2pt.cloudfront.net%2FRecord%2Fck60hb2c90wp50873k099tilh%2F1596699059950.m4a",
        "type": "audio/x-m4a"
      },
      "permalink": "#podcast/objectObject"
    },
    {
      "slug": "2020Q3e14",
      "id": "[object Object]",
      "title": "[開槓好不好] 0902 給新手Podcaster錄音前熱身和麥克風使用技巧的小分享 feat. 「被按下錄音鍵的數據王」Eason",
      "pub_date": "2020-09-02T10:01:17Z",
      "duration": "14:38",
      "image": "https://file.cdn.firstory.me/Image/ck60hb2c90wp50873k099tilh/1596711396840.jpeg",
      "audio": {
        "url": "https://m.cdn.firstory.me/track/ck60hb2c90wp50873k099tilh/ckel7nh0bcfrn08394w4fdeeq/https%3A%2F%2Fd3mww1g1pfq2pt.cloudfront.net%2FRecord%2Fck60hb2c90wp50873k099tilh%2F1596711396840.m4a",
        "type": "audio/x-m4a"
      },
      "permalink": "#podcast/objectObject"
    },
    {
      "slug": "2020Q3e13",
      "id": "[object Object]",
      "title": "[說書好不好] 雞蛋糕愛看書-4：如果可以穿越時空，會遇見怎樣的自己？－《想見你 Someday or one day：原著小說》(Readmoo讀墨贊助電子書)",
      "pub_date": "2020-08-30T10:03:34Z",
      "duration": "25:29",
      "image": "https://file.cdn.firstory.me/Image/ck60hb2c90wp50873k099tilh/1608569500702.png",
      "audio": {
        "url": "https://m.cdn.firstory.me/track/ck60hb2c90wp50873k099tilh/ckegxeuv5o32w08397ggo7fvj/https%3A%2F%2Fd3mww1g1pfq2pt.cloudfront.net%2FRecord%2Fck60hb2c90wp50873k099tilh%2F1598781809816.m4a?v=1599231834934",
        "type": "audio/x-m4a"
      },
      "permalink": "#podcast/objectObject"
    }
  ]
}