{
  "type": "podcast",
  "show": {
    "id": "show",
    "title": "喂喂你還好不好",
    "author": "雞蛋糕 GCAKE",
    "image": "https://image.firstory-cdn.me/Avatar/ck60hb2c90wp50873k099tilh/1752846373303.jpg",
    "link": "https://wwhowbuhow.firstory.io",
    "language": "zh-Hant"
  },
  "page": 15,
  "page_size": 10,
  "total_items": 196,
  "total_pages": 20,
  "updated_at": "2025-10-10T05:45:44Z",
  "items": [
    {
      "id": "[object Object]",
      "title": "[小鬱好不好] 小鬱亂入的生活-9：練習建立生活規律 - 彩蛋篇 feat. 尼克小姐 (IG: ot_ishere)",
      "pub_date": "2020-07-24T10:01:10Z",
      "duration": "29:19",
      "image": "https://file.cdn.firstory.me/Image/ck60hb2c90wp50873k099tilh/1595485700896.jpeg",
      "audio": {
        "url": "https://m.cdn.firstory.me/track/ck60hb2c90wp50873k099tilh/ckd0218uy8nf80870iqapzfcu/https%3A%2F%2Fd3mww1g1pfq2pt.cloudfront.net%2FRecord%2Fck60hb2c90wp50873k099tilh%2F1595485700896.m4a?v=1596096391228",
        "type": "audio/x-m4a"
      },
      "permalink": "#podcast/objectObject"
    },
    {
      "id": "[object Object]",
      "title": "《洪大仙挑戰》[開槓好不好] 致敬《失眠必備良藥》以及《伍樓室友》Marks 里長伯 念出群組內188個節目名稱",
      "pub_date": "2020-07-20T05:59:33Z",
      "duration": "09:48",
      "image": "https://file.cdn.firstory.me/Image/ck60hb2c90wp50873k099tilh/1595224770214.jpeg",
      "audio": {
        "url": "https://m.cdn.firstory.me/track/ck60hb2c90wp50873k099tilh/ckcu3n44mfrbv0972fzw26cx7/https%3A%2F%2Fd3mww1g1pfq2pt.cloudfront.net%2FRecord%2Fck60hb2c90wp50873k099tilh%2F1595224770214.m4a?v=1596097069015",
        "type": "audio/x-m4a"
      },
      "permalink": "#podcast/objectObject"
    },
    {
      "id": "[object Object]",
      "title": "《喂喂你還好不好》第二季預告",
      "pub_date": "2020-07-19T10:01:14Z",
      "duration": "01:44",
      "image": "https://file.cdn.firstory.me/Image/ck60hb2c90wp50873k099tilh/1592814358318.jpeg",
      "audio": {
        "url": "https://m.cdn.firstory.me/track/ck60hb2c90wp50873k099tilh/ckcswu2nk2fov0918xxf8pqtk/https%3A%2F%2Fd3mww1g1pfq2pt.cloudfront.net%2FRecord%2Fck60hb2c90wp50873k099tilh%2F1592811107322.m4a?v=1596097018521",
        "type": "audio/x-m4a"
      },
      "permalink": "#podcast/objectObject"
    },
    {
      "id": "[object Object]",
      "title": "[小鬱好不好] SP.6 謝謝DCard上留言推薦《喂喂你還好不好》的網友",
      "pub_date": "2020-07-17T10:45:55Z",
      "duration": "02:08",
      "image": "https://file.cdn.firstory.me/Image/ck60hb2c90wp50873k099tilh/1594982752328.jpeg",
      "audio": {
        "url": "https://m.cdn.firstory.me/track/ck60hb2c90wp50873k099tilh/ckcq3ju00yy710918xerbq6v2/https%3A%2F%2Fd3mww1g1pfq2pt.cloudfront.net%2FRecord%2Fck60hb2c90wp50873k099tilh%2F1594982752328.m4a",
        "type": "audio/x-m4a"
      },
      "permalink": "#podcast/objectObject"
    },
    {
      "id": "[object Object]",
      "title": "[小鬱好不好] 小鬱亂入的生活-8：練習建立生活規律 feat. 一個精神科職能治療師 (IG: ot_ishere)、推薦書：《微復原力》",
      "pub_date": "2020-07-10T10:01:11Z",
      "duration": "45:22",
      "image": "https://file.cdn.firstory.me/Image/ck60hb2c90wp50873k099tilh/1593077019573.jpeg",
      "audio": {
        "url": "https://m.cdn.firstory.me/track/ck60hb2c90wp50873k099tilh/ckcg1vcpoaja209187enmnel4/https%3A%2F%2Fd3mww1g1pfq2pt.cloudfront.net%2FRecord%2Fck60hb2c90wp50873k099tilh%2F1593077019573.m4a?v=1609487331051",
        "type": "audio/mp4"
      },
      "permalink": "#podcast/objectObject"
    },
    {
      "id": "[object Object]",
      "title": "[小鬱好不好] 請問我有被小鬱亂入嗎？雞蛋糕表示：介於有跟沒有之間",
      "pub_date": "2020-07-03T10:01:14Z",
      "duration": "22:29",
      "image": "https://file.cdn.firstory.me/Image/ck60hb2c90wp50873k099tilh/1591792854905.jpeg",
      "audio": {
        "url": "https://m.cdn.firstory.me/track/ck60hb2c90wp50873k099tilh/ckc61sgjxgx180918f2a0yr8a/https%3A%2F%2Fd3mww1g1pfq2pt.cloudfront.net%2FRecord%2Fck60hb2c90wp50873k099tilh%2F1592021612935.m4a?v=1609486664580",
        "type": "audio/mp4"
      },
      "permalink": "#podcast/objectObject"
    },
    {
      "id": "[object Object]",
      "title": "[說書好不好] 預告：《沒關係，是悲傷啊！》It's OK that You're Not OK. (Readmoo讀墨贊助電子書)",
      "pub_date": "2020-06-27T10:01:16Z",
      "duration": "08:00",
      "image": "https://file.cdn.firstory.me/Image/ck60hb2c90wp50873k099tilh/1592813803595.jpeg",
      "audio": {
        "url": "https://m.cdn.firstory.me/track/ck60hb2c90wp50873k099tilh/ckbxh5dt20dzh0918dy5hxkin/https%3A%2F%2Fd3mww1g1pfq2pt.cloudfront.net%2FRecord%2Fck60hb2c90wp50873k099tilh%2F1592813803595.m4a",
        "type": "audio/m4a"
      },
      "permalink": "#podcast/objectObject"
    },
    {
      "id": "[object Object]",
      "title": "[小鬱好不好] 小鬱亂入的生活-7：斷電、推薦臉書粉專：《心靈角落》、推薦歌曲：尋人啟事The Wanted《我巨大的悲傷》",
      "pub_date": "2020-06-26T10:01:23Z",
      "duration": "31:26",
      "image": "https://file.cdn.firstory.me/Image/ck60hb2c90wp50873k099tilh/1590566359066.jpeg",
      "audio": {
        "url": "https://m.cdn.firstory.me/track/ck60hb2c90wp50873k099tilh/ckbw1po9fn8ba0918gf0cdnww/https%3A%2F%2Fd3mww1g1pfq2pt.cloudfront.net%2FRecord%2Fck60hb2c90wp50873k099tilh%2F1592021215886.m4a?v=1609486410927",
        "type": "audio/mp4"
      },
      "permalink": "#podcast/objectObject"
    },
    {
      "id": "[object Object]",
      "title": "《端午特企x粽合接力》《白蛇傳》追求自己想要的人生後，回家過節壓力山大，怎麼辦？",
      "pub_date": "2020-06-24T16:01:17Z",
      "duration": "32:32",
      "image": "https://file.cdn.firstory.me/Image/ck60hb2c90wp50873k099tilh/1592739487162.jpeg",
      "audio": {
        "url": "https://m.cdn.firstory.me/track/ck60hb2c90wp50873k099tilh/ckbtjotfhyfyf0918vprowgn3/https%3A%2F%2Fd3mww1g1pfq2pt.cloudfront.net%2FRecord%2Fck60hb2c90wp50873k099tilh%2F1592739487162.m4a?v=1609485915816",
        "type": "audio/mp4"
      },
      "permalink": "#podcast/objectObject"
    },
    {
      "id": "[object Object]",
      "title": "[小鬱好不好] 雞蛋糕碎碎唸：醫病關係，以及尋求專業醫療協助的誠摯建議",
      "pub_date": "2020-06-19T10:01:16Z",
      "duration": "17:22",
      "image": "https://file.cdn.firstory.me/Image/ck60hb2c90wp50873k099tilh/1590565959715.jpeg",
      "audio": {
        "url": "https://m.cdn.firstory.me/track/ck60hb2c90wp50873k099tilh/ckbm1mkc2ax040873aiwdvlfq/https%3A%2F%2Fd3mww1g1pfq2pt.cloudfront.net%2FRecord%2Fck60hb2c90wp50873k099tilh%2F1592011909685.m4a?v=1609485500542",
        "type": "audio/mp4"
      },
      "permalink": "#podcast/objectObject"
    }
  ]
}