{
  "type": "podcast",
  "show": {
    "id": "show",
    "title": "喂喂你還好不好",
    "author": "雞蛋糕 GCAKE",
    "image": "https://image.firstory-cdn.me/Avatar/ck60hb2c90wp50873k099tilh/1752846373303.jpg",
    "link": "https://wwhowbuhow.firstory.io",
    "language": "zh-Hant"
  },
  "page": 11,
  "page_size": 10,
  "total_items": 196,
  "total_pages": 20,
  "updated_at": "2025-10-10T12:24:50Z",
  "items": [
    {
      "slug": "2021Q1e01",
      "id": "[object Object]",
      "title": "[小鬱好不好] 無法「好好說話」的孩子，常常已經滿「心」傷痕《我們的孩子在呼救》 Live Podcast ft. 謝依婷醫師、丁慧瑋編輯",
      "pub_date": "2021-01-21T04:41:49Z",
      "duration": "01:23:45",
      "image": "https://file.cdn.firstory.me/Image/ck60hb2c90wp50873k099tilh/1611325450290.png",
      "audio": {
        "url": "https://m.cdn.firstory.me/track/ck60hb2c90wp50873k099tilh/ckk6dbr7j4d2x08044qs39mi8/https%3A%2F%2Fd3mww1g1pfq2pt.cloudfront.net%2FRecord%2Fck60hb2c90wp50873k099tilh%2F1610529427184.mp3?v=1692878385467",
        "type": "audio/mpeg"
      },
      "permalink": "#podcast/objectObject"
    },
    {
      "slug": "2021Q1e43",
      "id": "[object Object]",
      "title": "[小鬱好不好] 校園中接住學生們的那雙手 ft. 廢物心理師 お茶 aka 現役大專院校心輔中心諮商心理師",
      "pub_date": "2021-01-10T23:01:11Z",
      "duration": "01:19:50",
      "image": "https://file.cdn.firstory.me/Image/ck60hb2c90wp50873k099tilh/1611325427542.jpeg",
      "audio": {
        "url": "https://m.cdn.firstory.me/track/ck60hb2c90wp50873k099tilh/ckjrqr68ndxw90989xw43qv11/https%3A%2F%2Fd3mww1g1pfq2pt.cloudfront.net%2FRecord%2Fck60hb2c90wp50873k099tilh%2F1610289508345.m4a?v=1610954939348",
        "type": "audio/mp4"
      },
      "permalink": "#podcast/objectObject"
    },
    {
      "slug": "2020Q4e42",
      "id": "[object Object]",
      "title": "[小鬱好不好] 小鬱亂入的生活-15 ：回顧整個治療歷程，我還是很想念「以前」的自己 ft. 析心事務所der陳璿丞醫師 (B面)",
      "pub_date": "2020-12-31T08:52:53Z",
      "duration": "59:39",
      "image": "https://file.cdn.firstory.me/Image/ck60hb2c90wp50873k099tilh/1609404761071.jpeg",
      "audio": {
        "url": "https://m.cdn.firstory.me/track/ck60hb2c90wp50873k099tilh/ckjcm1qd84kj40889hd1gkde7/https%3A%2F%2Fd3mww1g1pfq2pt.cloudfront.net%2FRecord%2Fck60hb2c90wp50873k099tilh%2F1609404761071.m4a?v=1609836412891",
        "type": "audio/mp4"
      },
      "permalink": "#podcast/objectObject"
    },
    {
      "slug": "2020Q4e41",
      "id": "[object Object]",
      "title": "[小鬱好不好] 小鬱亂入的生活-14 ：開始學著明白生命都是選擇題－就診前的猶豫、談談自殺的看法 ft. 析心事務所der陳璿丞醫師 (A面)",
      "pub_date": "2020-12-31T04:24:20Z",
      "duration": "58:34",
      "image": "https://file.cdn.firstory.me/Image/ck60hb2c90wp50873k099tilh/1609388649616.jpeg",
      "audio": {
        "url": "https://m.cdn.firstory.me/track/ck60hb2c90wp50873k099tilh/ckjccgdub46kh0824zt3ytzx1/https%3A%2F%2Fd3mww1g1pfq2pt.cloudfront.net%2FRecord%2Fck60hb2c90wp50873k099tilh%2F1609388649616.m4a?v=1609837396280",
        "type": "audio/mp4"
      },
      "permalink": "#podcast/objectObject"
    },
    {
      "slug": "2020Q4e40",
      "id": "[object Object]",
      "title": "[小鬱好不好] 無障礙閱讀 (A面)－從「出版社不讓人聽電子書」社群爭議，來聊聊機器語音朗讀的使用情境 ft. 小偉 and 阿基拉",
      "pub_date": "2020-12-30T16:01:18Z",
      "duration": "43:38",
      "image": "https://file.cdn.firstory.me/Image/ck60hb2c90wp50873k099tilh/1609230544971.jpeg",
      "audio": {
        "url": "https://m.cdn.firstory.me/track/ck60hb2c90wp50873k099tilh/ckjblwtnp0jyd082414q5sah5/https%3A%2F%2Fd3mww1g1pfq2pt.cloudfront.net%2FRecord%2Fck60hb2c90wp50873k099tilh%2F1609230544971.m4a?v=1609838195376",
        "type": "audio/mp4"
      },
      "permalink": "#podcast/objectObject"
    },
    {
      "slug": "2020Q4e37",
      "id": "[object Object]",
      "title": "[小鬱好不好] 重男輕女，讓所有男孩女孩都在不平等中受傷 (Readmoo讀墨贊助電子書)",
      "pub_date": "2020-12-28T12:20:57Z",
      "duration": "53:30",
      "image": "https://file.cdn.firstory.me/Image/ck60hb2c90wp50873k099tilh/1609158041171.jpeg",
      "audio": {
        "url": "https://m.cdn.firstory.me/track/ck60hb2c90wp50873k099tilh/ckj8j5r801h5b0894291o0ylc/https%3A%2F%2Fd3mww1g1pfq2pt.cloudfront.net%2FRecord%2Fck60hb2c90wp50873k099tilh%2F1609158041171.m4a",
        "type": "audio/mp4"
      },
      "permalink": "#podcast/objectObject"
    },
    {
      "slug": "2020Q4e36",
      "id": "[object Object]",
      "title": "[說書好不好] 雞蛋糕愛看書-7：腦袋裡「我不配」的聲音揮之不去－《冒牌者症候群》、推薦歌：魏如萱《恐慌症》 (Readmoo讀墨贊助電子書)",
      "pub_date": "2020-12-16T23:01:13Z",
      "duration": "46:54",
      "image": "https://file.cdn.firstory.me/Image/ck60hb2c90wp50873k099tilh/1608140270497.png",
      "audio": {
        "url": "https://m.cdn.firstory.me/track/ck60hb2c90wp50873k099tilh/ckis0qx8j3f4q0822se4gmeod/https%3A%2F%2Fd3mww1g1pfq2pt.cloudfront.net%2FRecord%2Fck60hb2c90wp50873k099tilh%2F1608140270497.m4a?v=1609401137376",
        "type": "audio/mp4"
      },
      "permalink": "#podcast/objectObject"
    },
    {
      "slug": "2020Q4e35",
      "id": "[object Object]",
      "title": "[小鬱好不好] 小鬱亂入的生活-13：原來小鬱患者也可以捐血",
      "pub_date": "2020-12-14T23:01:10Z",
      "duration": "14:49",
      "image": "https://file.cdn.firstory.me/Image/ck60hb2c90wp50873k099tilh/1607960040920.jpeg",
      "audio": {
        "url": "https://m.cdn.firstory.me/track/ck60hb2c90wp50873k099tilh/ckip5v5szfmyw0801hx42akp7/https%3A%2F%2Fd3mww1g1pfq2pt.cloudfront.net%2FRecord%2Fck60hb2c90wp50873k099tilh%2F1607960040920.m4a",
        "type": "audio/x-m4a"
      },
      "permalink": "#podcast/objectObject"
    },
    {
      "slug": "2020Q4e34",
      "id": "[object Object]",
      "title": "2020 年末特別抽獎企劃說明、小禮物和心理議題桌遊開箱、《心靈角落》粉專2021活動參與者募集 (1130 IG直播音檔)",
      "pub_date": "2020-12-01T23:01:15Z",
      "duration": "01:00:27",
      "image": "https://file.cdn.firstory.me/Image/ck60hb2c90wp50873k099tilh/1606839763691.jpeg",
      "audio": {
        "url": "https://m.cdn.firstory.me/track/ck60hb2c90wp50873k099tilh/cki6l56t7i6lk08643qamz47v/https%3A%2F%2Fd3mww1g1pfq2pt.cloudfront.net%2FRecord%2Fck60hb2c90wp50873k099tilh%2F1606839763691.m4a",
        "type": "audio/x-m4a"
      },
      "permalink": "#podcast/objectObject"
    },
    {
      "slug": "2020Q4e33",
      "id": "[object Object]",
      "title": "[小鬱好不好] 免費心理諮詢服務資源、「諮詢」和「諮商」的不同、你的錢值得成為更適合照顧你的形狀",
      "pub_date": "2020-11-29T23:01:11Z",
      "duration": "18:20",
      "image": "https://file.cdn.firstory.me/Image/ck60hb2c90wp50873k099tilh/1606664048264.jpeg",
      "audio": {
        "url": "https://m.cdn.firstory.me/track/ck60hb2c90wp50873k099tilh/cki3q9em18sc40898f6vn1n6y/https%3A%2F%2Fd3mww1g1pfq2pt.cloudfront.net%2FRecord%2Fck60hb2c90wp50873k099tilh%2F1606664048264.m4a",
        "type": "audio/x-m4a"
      },
      "permalink": "#podcast/objectObject"
    }
  ]
}