{
  "type": "podcast",
  "show": {
    "id": "show",
    "title": "喂喂你還好不好",
    "author": "雞蛋糕 GCAKE",
    "image": "https://image.firstory-cdn.me/Avatar/ck60hb2c90wp50873k099tilh/1752846373303.jpg",
    "link": "https://wwhowbuhow.firstory.io",
    "language": "zh-Hant"
  },
  "page": 4,
  "page_size": 10,
  "total_items": 196,
  "total_pages": 20,
  "updated_at": "2025-10-10T05:33:47Z",
  "items": [
    {
      "id": "[object Object]",
      "title": "[小鬱好不好] 當醫生說：「我幫你安排住院好不好？」 ft. 學妹 （IG：頂大研究生日常｜看診、用藥、日常記錄）",
      "pub_date": "2023-08-08T09:04:29Z",
      "duration": "01:18:26",
      "image": "https://file.cdn.firstory.me/Image/ck60hb2c90wp50873k099tilh/CfiQeimPN1jOQq1SBE9VM.jpg",
      "audio": {
        "url": "https://m.cdn.firstory.me/track/ck60hb2c90wp50873k099tilh/clkxeyyx0000f01sw40c378xv/https%3A%2F%2Fd3mww1g1pfq2pt.cloudfront.net%2FRecord%2Fck60hb2c90wp50873k099tilh%2Fclkxeyyx1000g01sw23zfecon.mp3?v=1758572709611",
        "type": "audio/mpeg"
      },
      "permalink": "#podcast/objectObject"
    },
    {
      "id": "[object Object]",
      "title": "[小鬱好不好] 年輕族群心理健康支持方案開跑，踏進諮商室前可以做的準備",
      "pub_date": "2023-08-01T14:37:41Z",
      "duration": "22:16",
      "image": "https://file.cdn.firstory.me/Image/ck60hb2c90wp50873k099tilh/Y1_k1TjCZjU-NymWe9oKM.jpg",
      "audio": {
        "url": "https://m.cdn.firstory.me/track/ck60hb2c90wp50873k099tilh/clksefk2d000001z0chm4hg9b/https%3A%2F%2Fd3mww1g1pfq2pt.cloudfront.net%2FRecord%2Fck60hb2c90wp50873k099tilh%2Fclksefk2d000101z05hy80m0q.mp3?v=1758571285033",
        "type": "audio/mpeg"
      },
      "permalink": "#podcast/objectObject"
    },
    {
      "id": "[object Object]",
      "title": "[燒酒雞乾杯] 諮商關係是一種以結束關係為前提的人際關係 ft. 《心理師乾杯》阿寶",
      "pub_date": "2023-07-26T07:44:53Z",
      "duration": "01:26:25",
      "image": "https://file.cdn.firstory.me/Image/ck60hb2c90wp50873k099tilh/zjBg44ZjSmQdeF9SmmcBC.jpg",
      "audio": {
        "url": "https://m.cdn.firstory.me/track/ck60hb2c90wp50873k099tilh/clkin3f6d01n901vv1vlh05pj/https%3A%2F%2Fd3mww1g1pfq2pt.cloudfront.net%2FRecord%2Fck60hb2c90wp50873k099tilh%2Fclkin3f6d01na01vv58nyh8vp.mp3?v=1758599746092",
        "type": "audio/mpeg"
      },
      "permalink": "#podcast/objectObject"
    },
    {
      "id": "[object Object]",
      "title": "[小鬱好不好] pdf2gpt：自製 pdf 文件 AI 翻譯小幫手、回覆 Apple Podcast 留言",
      "pub_date": "2023-07-18T12:41:33Z",
      "duration": "01:04:18",
      "image": "https://file.cdn.firstory.me/Image/ck60hb2c90wp50873k099tilh/mWCG8miiKE-_zD9-z5QH4.jpg",
      "audio": {
        "url": "https://m.cdn.firstory.me/track/ck60hb2c90wp50873k099tilh/clk8a9937007601xa49dvbft2/https%3A%2F%2Fd3mww1g1pfq2pt.cloudfront.net%2FRecord%2Fck60hb2c90wp50873k099tilh%2Fclk8a9938007701xa1tpv0xm5.mp3?v=1758571507702",
        "type": "audio/mpeg"
      },
      "permalink": "#podcast/objectObject"
    },
    {
      "id": "[object Object]",
      "title": "[小鬱好不好] 節目總下載數破十五萬，歡迎拍拍抱抱誇誇！小聊 CoCo 李玟過世的影響",
      "pub_date": "2023-07-11T04:01:13Z",
      "duration": "30:57",
      "image": "https://file.cdn.firstory.me/Image/ck60hb2c90wp50873k099tilh/z0oWw1T5KEa1OeEPrZYas.jpg",
      "audio": {
        "url": "https://m.cdn.firstory.me/track/ck60hb2c90wp50873k099tilh/cljwxqln000vm01tce5i6he1r/https%3A%2F%2Fd3mww1g1pfq2pt.cloudfront.net%2FRecord%2Fck60hb2c90wp50873k099tilh%2Fcljwxqln100vn01tc6ivugfph.mp3?v=1758569602230",
        "type": "audio/mpeg"
      },
      "permalink": "#podcast/objectObject"
    },
    {
      "id": "[object Object]",
      "title": "《城門城門幾丈高》第 8 集 （聽完有彩蛋）從兒童自殺數據增加的新聞，回想自己灰色和苦澀的學生時期",
      "pub_date": "2023-06-06T04:01:16Z",
      "duration": "00:32",
      "image": "https://file.cdn.firstory.me/Image/ck60hb2c90wp50873k099tilh/gQ3MQTve1ED5goBzkIJRS.jpg",
      "audio": {
        "url": "https://m.cdn.firstory.me/track/ck60hb2c90wp50873k099tilh/clieomiys02p001q6azigfs00/https%3A%2F%2Fd3mww1g1pfq2pt.cloudfront.net%2FRecord%2Fck60hb2c90wp50873k099tilh%2Fclieomiys02p101q66x8degyl.mp3?v=1758604330203",
        "type": "audio/mpeg"
      },
      "permalink": "#podcast/objectObject"
    },
    {
      "id": "[object Object]",
      "title": "[小鬱好不好] 吃瓜聊劇-2：有一部宮部美幸《模仿犯》小說的同名台劇 ft.《草木談心》草老闆",
      "pub_date": "2023-05-30T04:01:15Z",
      "duration": "57:07",
      "image": "https://file.cdn.firstory.me/Image/ck60hb2c90wp50873k099tilh/VH0Dr1w3hyB5AwTey9sCa.jpg",
      "audio": {
        "url": "https://m.cdn.firstory.me/track/ck60hb2c90wp50873k099tilh/cli91z2os00bb01xd2w70dlk8/https%3A%2F%2Fd3mww1g1pfq2pt.cloudfront.net%2FRecord%2Fck60hb2c90wp50873k099tilh%2Fcli91z2os00bc01xd2ief8i3o.mp3?v=1758569785960",
        "type": "audio/mpeg"
      },
      "permalink": "#podcast/objectObject"
    },
    {
      "id": "[object Object]",
      "title": "[小鬱好不好] 我也好想要「同理心」那個酷東西！推薦 Podcast：《自助吧Tender》、《阿嘟你講真》",
      "pub_date": "2023-05-23T04:01:10Z",
      "duration": "47:00",
      "image": "https://file.cdn.firstory.me/Image/ck60hb2c90wp50873k099tilh/1P5V70je-U48ATpv61iQI.jpg",
      "audio": {
        "url": "https://m.cdn.firstory.me/track/ck60hb2c90wp50873k099tilh/clhw6r2ar015h01we3azmdcl3/https%3A%2F%2Fd3mww1g1pfq2pt.cloudfront.net%2FRecord%2Fck60hb2c90wp50873k099tilh%2Fclhw6r2ar015i01weboua32ed.mp3?v=1758599575824",
        "type": "audio/mpeg"
      },
      "permalink": "#podcast/objectObject"
    },
    {
      "id": "[object Object]",
      "title": "[小鬱好不好] 小鬱亂入的生活-27 ：當實證科學的信徒到王爺座前收驚",
      "pub_date": "2023-05-16T04:29:45Z",
      "duration": "36:22",
      "image": "https://file.cdn.firstory.me/Image/ck60hb2c90wp50873k099tilh/tZrgiZnZ0CIpax0Dqmktq.jpg",
      "audio": {
        "url": "https://m.cdn.firstory.me/track/ck60hb2c90wp50873k099tilh/clhpkjxb506ws01uzakp3a2f3/https%3A%2F%2Fd3mww1g1pfq2pt.cloudfront.net%2FRecord%2Fck60hb2c90wp50873k099tilh%2Fclhpkjxb506wt01uzduus12xd.mp3?v=1758598874202",
        "type": "audio/mpeg"
      },
      "permalink": "#podcast/objectObject"
    },
    {
      "id": "[object Object]",
      "title": "《城門城門幾丈高》第 4 集 與醫師和心理師的合作關係：那些在精神科診間和諮商室才能實現的對話",
      "pub_date": "2023-05-05T01:22:16Z",
      "duration": "01:47:55",
      "image": "https://file.cdn.firstory.me/Image/ck60hb2c90wp50873k099tilh/VR9s4VHzpNanhYDDF-kBT.jpg",
      "audio": {
        "url": "https://m.cdn.firstory.me/track/ck60hb2c90wp50873k099tilh/clh9v5a7i0jje01tbce2zcfef/https%3A%2F%2Fd3mww1g1pfq2pt.cloudfront.net%2FRecord%2Fck60hb2c90wp50873k099tilh%2Fclh9v5a7j0jjf01tbcpbv9uo8.mp3?v=1758603069687",
        "type": "audio/mpeg"
      },
      "permalink": "#podcast/objectObject"
    }
  ]
}