{
  "type": "podcast",
  "show": {
    "id": "show",
    "title": "喂喂你還好不好",
    "author": "雞蛋糕 GCAKE",
    "image": "https://image.firstory-cdn.me/Avatar/ck60hb2c90wp50873k099tilh/1752846373303.jpg",
    "link": "https://wwhowbuhow.firstory.io",
    "language": "zh-Hant"
  },
  "page": 19,
  "page_size": 10,
  "total_items": 196,
  "total_pages": 20,
  "updated_at": "2025-10-11T12:21:13Z",
  "items": [
    {
      "slug": "2020Q1e13",
      "id": "[object Object]",
      "title": "[開槓好不好] 0318 百靈果開槓！Podcasters串連活動：我想向我的粉絲介紹你 - 良人拾號 Smart Food",
      "pub_date": "2020-03-18T10:01:08Z",
      "duration": "09:24",
      "image": "https://file.cdn.firstory.me/Image/ck60hb2c90wp50873k099tilh/1596724710822.jpeg",
      "audio": {
        "url": "https://m.cdn.firstory.me/track/ck60hb2c90wp50873k099tilh/ck7x5o5yz0nt50873t1ulc5n8/https%3A%2F%2Fd3mww1g1pfq2pt.cloudfront.net%2FRecord%2Fck60hb2c90wp50873k099tilh%2F1583767111060.m4a?v=1596724710822",
        "type": "audio/mp4"
      },
      "permalink": "#podcast/objectObject"
    },
    {
      "slug": "2020Q1e12",
      "id": "[object Object]",
      "title": "[開槓好不好] 0316 Bonus 雞蛋糕微微時事評論：不知足！不懂感恩！的憂鬱症患者們(音檔已修正)",
      "pub_date": "2020-03-16T11:54:11Z",
      "duration": "23:14",
      "image": "https://file.cdn.firstory.me/Image/ck60hb2c90wp50873k099tilh/1588343554113.jpeg",
      "audio": {
        "url": "https://m.cdn.firstory.me/track/ck60hb2c90wp50873k099tilh/ck7uetuluui1z0873ddht8d9v/https%3A%2F%2Fd3mww1g1pfq2pt.cloudfront.net%2FRecord%2Fck60hb2c90wp50873k099tilh%2F1584359618566.m4a?v=1593490109257",
        "type": "audio/mp4"
      },
      "permalink": "#podcast/objectObject"
    },
    {
      "slug": "2020Q1e11",
      "id": "[object Object]",
      "title": "[說書好不好] S1E1 書海衝浪 pt.1 - 關於「閱讀」，你可以有更多想像：雞蛋糕推薦的中文Podcast節目",
      "pub_date": "2020-03-15T14:31:21Z",
      "duration": "36:24",
      "image": "https://file.cdn.firstory.me/Image/ck60hb2c90wp50873k099tilh/1609489755688.jpeg",
      "audio": {
        "url": "https://m.cdn.firstory.me/track/ck60hb2c90wp50873k099tilh/ck7t5043kr5e60873ozwfe60d/https%3A%2F%2Fd3mww1g1pfq2pt.cloudfront.net%2FRecord%2Fck60hb2c90wp50873k099tilh%2F1583329323024.m4a?v=1609489767348",
        "type": "audio/mp4"
      },
      "permalink": "#podcast/objectObject"
    },
    {
      "slug": "2020Q1e10",
      "id": "[object Object]",
      "title": "[開槓好不好] 0313 Firstory Infinity Hosting服務限時終生免費！加碼介紹台灣本土Podcast公司：SoundOn與Baabao",
      "pub_date": "2020-03-13T15:53:01Z",
      "duration": "08:43",
      "image": "https://file.cdn.firstory.me/Image/ck60hb2c90wp50873k099tilh/1588343613735.jpeg",
      "audio": {
        "url": "https://m.cdn.firstory.me/track/ck60hb2c90wp50873k099tilh/ck7qd1fj9leeu0873nspq1wcb/https%3A%2F%2Fd3mww1g1pfq2pt.cloudfront.net%2FRecord%2Fck60hb2c90wp50873k099tilh%2F1584114774227.aac",
        "type": "audio/aac"
      },
      "permalink": "#podcast/objectObject"
    },
    {
      "slug": "2020Q1e09",
      "id": "[object Object]",
      "title": "[小鬱好不好] 被小鬱亂入，真的就像心靈感冒嗎？、推薦漫畫：《脫憂鬱》、《健康才有鹿用》、《健康才有鹿用2》",
      "pub_date": "2020-03-13T10:01:13Z",
      "duration": "27:08",
      "image": "https://file.cdn.firstory.me/Image/ck60hb2c90wp50873k099tilh/1588343740228.jpeg",
      "audio": {
        "url": "https://m.cdn.firstory.me/track/ck60hb2c90wp50873k099tilh/ck7q0h14fkhu10873rgb3f5fm/https%3A%2F%2Fd3mww1g1pfq2pt.cloudfront.net%2FRecord%2Fck60hb2c90wp50873k099tilh%2F1583601307450.m4a?v=1609482269884",
        "type": "audio/mp4"
      },
      "permalink": "#podcast/objectObject"
    },
    {
      "slug": "2020Q1e08",
      "id": "[object Object]",
      "title": "[小鬱好不好] 被小鬱亂入的生活-2：凍在冰塊裡只剩碎片的雞蛋糕、推薦書：《為自己出征》、朗讀日記：《推開所有人之後》",
      "pub_date": "2020-03-06T10:01:14Z",
      "duration": "20:39",
      "image": "https://file.cdn.firstory.me/Image/ck60hb2c90wp50873k099tilh/1588343759296.jpeg",
      "audio": {
        "url": "https://m.cdn.firstory.me/track/ck60hb2c90wp50873k099tilh/ck7g0e2vb3kgx0873a4jsxji8/https%3A%2F%2Fd3mww1g1pfq2pt.cloudfront.net%2FRecord%2Fck60hb2c90wp50873k099tilh%2F1583161710382.wav?v=1609481818605",
        "type": "audio/mp4"
      },
      "permalink": "#podcast/objectObject"
    },
    {
      "slug": "2020Q1e07",
      "id": "[object Object]",
      "title": "Bonus 0303 雞蛋糕麥克風測試 one~two~three~",
      "pub_date": "2020-03-03T15:37:14Z",
      "duration": "02:44",
      "image": "https://file.cdn.firstory.me/Image/ck60hb2c90wp50873k099tilh/1588343845138.jpeg",
      "audio": {
        "url": "https://m.cdn.firstory.me/track/ck60hb2c90wp50873k099tilh/ck7c22mjww6650873wrdt8i44/https%3A%2F%2Fd3mww1g1pfq2pt.cloudfront.net%2FRecord%2Fck60hb2c90wp50873k099tilh%2F1583249815231.wav?v=1593489868847",
        "type": "audio/wav"
      },
      "permalink": "#podcast/objectObject"
    },
    {
      "slug": "2020Q1e06",
      "id": "[object Object]",
      "title": "[開槓好不好] 0228 百靈果開槓！製作Podcast給我帶來的改變",
      "pub_date": "2020-02-28T10:01:09Z",
      "duration": "23:28",
      "image": "https://file.cdn.firstory.me/Image/ck60hb2c90wp50873k099tilh/1588343892904.jpeg",
      "audio": {
        "url": "https://m.cdn.firstory.me/track/ck60hb2c90wp50873k099tilh/ck760b05vlafc0873s1s7agmp/https%3A%2F%2Fd3mww1g1pfq2pt.cloudfront.net%2FRecord%2Fck60hb2c90wp50873k099tilh%2F1582735740834.wav?v=1607868214410",
        "type": "audio/wav"
      },
      "permalink": "#podcast/objectObject"
    },
    {
      "slug": "2020Q1e05",
      "id": "[object Object]",
      "title": "[小鬱好不好] 被小鬱亂入的生活-1：雞蛋糕的深夜懺悔、文章朗讀：《需要幫助，我仍完整》",
      "pub_date": "2020-02-21T17:50:03Z",
      "duration": "13:05",
      "image": "https://file.cdn.firstory.me/Image/ck60hb2c90wp50873k099tilh/1588343973901.jpeg",
      "audio": {
        "url": "https://m.cdn.firstory.me/track/ck60hb2c90wp50873k099tilh/ck6wgz1s75tpc0873766tpnjj/https%3A%2F%2Fd3mww1g1pfq2pt.cloudfront.net%2FRecord%2Fck60hb2c90wp50873k099tilh%2F1582307320174.wav?v=1609481538592",
        "type": "audio/mp4"
      },
      "permalink": "#podcast/objectObject"
    },
    {
      "slug": "2020-02-21",
      "id": "[object Object]",
      "title": "喂喂 你還好不好 節目短介紹 for Spotify/ 臺語版節目籌備中",
      "pub_date": "2020-02-21T12:37:02Z",
      "duration": "03:42",
      "image": "https://file.cdn.firstory.me/Image/ck60hb2c90wp50873k099tilh/1588343993522.png",
      "audio": {
        "url": "https://m.cdn.firstory.me/track/ck60hb2c90wp50873k099tilh/ck6w5sio058la08738tjw4057/https%3A%2F%2Fd3mww1g1pfq2pt.cloudfront.net%2FRecord%2Fck60hb2c90wp50873k099tilh%2F1582288593227.wav?v=1593490014196",
        "type": "audio/wav"
      },
      "permalink": "#podcast/objectObject"
    }
  ]
}