{
  "type": "podcast",
  "show": {
    "id": "show",
    "title": "喂喂你還好不好",
    "author": "雞蛋糕 GCAKE",
    "image": "https://image.firstory-cdn.me/Avatar/ck60hb2c90wp50873k099tilh/1752846373303.jpg",
    "link": "https://wwhowbuhow.firstory.io",
    "language": "zh-Hant"
  },
  "page": 14,
  "page_size": 10,
  "total_items": 196,
  "total_pages": 20,
  "updated_at": "2025-10-10T10:56:48Z",
  "items": [
    {
      "slug": "2020Q3e12",
      "id": "[object Object]",
      "title": "[小鬱好不好] 在視茫茫世界和小鬱相會－談憂鬱症和視障者的喪失與重建（下）feat. 抹黑客der木炭&Vincent",
      "pub_date": "2020-08-28T10:01:18Z",
      "duration": "44:45",
      "image": "https://file.cdn.firstory.me/Image/ck60hb2c90wp50873k099tilh/1598543049670.jpeg",
      "audio": {
        "url": "https://m.cdn.firstory.me/track/ck60hb2c90wp50873k099tilh/ckee2g8i2dbay0839g8hz98xf/https%3A%2F%2Fd3mww1g1pfq2pt.cloudfront.net%2FRecord%2Fck60hb2c90wp50873k099tilh%2F1598543049670.m4a",
        "type": "audio/x-m4a"
      },
      "permalink": "#podcast/objectObject"
    },
    {
      "slug": "2020Q3e11",
      "id": "[object Object]",
      "title": "[開槓好不好] 0826 給新手Podcaster訂節目主題的小分享 feat. 《這裡胡說》傑西大叔 & 「被按下錄音鍵的數據王」Eason",
      "pub_date": "2020-08-26T10:01:13Z",
      "duration": "08:15",
      "image": "https://file.cdn.firstory.me/Image/ck60hb2c90wp50873k099tilh/1596639979102.jpeg",
      "audio": {
        "url": "https://m.cdn.firstory.me/track/ck60hb2c90wp50873k099tilh/ckeb7kfoy3mdo0839y8i653jh/https%3A%2F%2Fd3mww1g1pfq2pt.cloudfront.net%2FRecord%2Fck60hb2c90wp50873k099tilh%2F1596711700436.m4a",
        "type": "audio/x-m4a"
      },
      "permalink": "#podcast/objectObject"
    },
    {
      "slug": "2020Q3e10",
      "id": "[object Object]",
      "title": "[開槓好不好] 2020/08/09 高雄分享會 Live Podcast：聊聊Podcast節目如何上架、節目第一季的數據概說、錄音初衷和聽友主要回饋",
      "pub_date": "2020-08-22T06:04:42Z",
      "duration": "45:38",
      "image": "https://file.cdn.firstory.me/Image/ck60hb2c90wp50873k099tilh/1598076276261.jpeg",
      "audio": {
        "url": "https://m.cdn.firstory.me/track/ck60hb2c90wp50873k099tilh/cke59cv1hh8ao0839onbney70/https%3A%2F%2Fd3mww1g1pfq2pt.cloudfront.net%2FRecord%2Fck60hb2c90wp50873k099tilh%2F1598076276261.m4a",
        "type": "audio/x-m4a"
      },
      "permalink": "#podcast/objectObject"
    },
    {
      "slug": "2020Q3e09",
      "id": "[object Object]",
      "title": "[小鬱好不好] 在視茫茫世界和小鬱相會－談憂鬱症和視障者的喪失與重建（上）feat. 抹黑客der木炭&Vincent",
      "pub_date": "2020-08-21T10:01:22Z",
      "duration": "58:14",
      "image": "https://file.cdn.firstory.me/Image/ck60hb2c90wp50873k099tilh/1597935365292.jpeg",
      "audio": {
        "url": "https://m.cdn.firstory.me/track/ck60hb2c90wp50873k099tilh/cke42dd7xm5xz0839pfg00x0v/https%3A%2F%2Fd3mww1g1pfq2pt.cloudfront.net%2FRecord%2Fck60hb2c90wp50873k099tilh%2F1597935365292.m4a",
        "type": "audio/x-m4a"
      },
      "permalink": "#podcast/objectObject"
    },
    {
      "slug": "2020Q3e08",
      "id": "[object Object]",
      "title": "《百鬼月行》那些喪禮留給活人的作業",
      "pub_date": "2020-08-18T17:37:49Z",
      "duration": "46:00",
      "image": "https://file.cdn.firstory.me/Image/ck60hb2c90wp50873k099tilh/1597772765276.jpeg",
      "audio": {
        "url": "https://m.cdn.firstory.me/track/ck60hb2c90wp50873k099tilh/cke08csoyh9yf0803zj75dpm0/https%3A%2F%2Fd3mww1g1pfq2pt.cloudfront.net%2FRecord%2Fck60hb2c90wp50873k099tilh%2F1597772262634.m4a",
        "type": "audio/x-m4a"
      },
      "permalink": "#podcast/objectObject"
    },
    {
      "slug": "2020Q3e07",
      "id": "[object Object]",
      "title": "[小鬱好不好] 來自陪伴者的剛剛好幽默",
      "pub_date": "2020-08-14T10:01:09Z",
      "duration": "21:30",
      "image": "https://file.cdn.firstory.me/Image/ck60hb2c90wp50873k099tilh/1596615913420.jpeg",
      "audio": {
        "url": "https://m.cdn.firstory.me/track/ck60hb2c90wp50873k099tilh/ckdu2a3zxne6s0880dn5y77c5/https%3A%2F%2Fd3mww1g1pfq2pt.cloudfront.net%2FRecord%2Fck60hb2c90wp50873k099tilh%2F1596615913420.m4a?v=1609488375545",
        "type": "audio/mp4"
      },
      "permalink": "#podcast/objectObject"
    },
    {
      "slug": "2020Q3e06",
      "id": "[object Object]",
      "title": "[開槓好不好] iPhone接Shure MV88錄音示範 feat《免費仔專用：台灣第一個介紹Podcast 製作的專業Podcast 頻道》傑西大叔、狐叔&「被迫按下錄音鍵的」數據王 Eason",
      "pub_date": "2020-08-12T10:56:01Z",
      "duration": "39:06",
      "image": "https://file.cdn.firstory.me/Image/ck60hb2c90wp50873k099tilh/1597229755158.jpeg",
      "audio": {
        "url": "https://m.cdn.firstory.me/track/ck60hb2c90wp50873k099tilh/ckdr9cz2oir2p08624ylobnj1/https%3A%2F%2Fd3mww1g1pfq2pt.cloudfront.net%2FRecord%2Fck60hb2c90wp50873k099tilh%2F1597229755158.m4a",
        "type": "audio/x-m4a"
      },
      "permalink": "#podcast/objectObject"
    },
    {
      "slug": "2020Q3e05",
      "id": "[object Object]",
      "title": "[說書好不好] 雞蛋糕愛看書-3：你會傷害自己嗎？「關於生死的那條線」書單 (Readmoo讀墨贊助電子書)",
      "pub_date": "2020-08-07T10:01:12Z",
      "duration": "01:00:09",
      "image": "https://file.cdn.firstory.me/Image/ck60hb2c90wp50873k099tilh/1609493197871.png",
      "audio": {
        "url": "https://m.cdn.firstory.me/track/ck60hb2c90wp50873k099tilh/ckdk2781jsm770862rl8cjs4e/https%3A%2F%2Fd3mww1g1pfq2pt.cloudfront.net%2FRecord%2Fck60hb2c90wp50873k099tilh%2F1596647163775.m4a?v=1609493214349",
        "type": "audio/mp4"
      },
      "permalink": "#podcast/objectObject"
    },
    {
      "slug": "2020Q3e04",
      "id": "[object Object]",
      "title": "[說書好不好] 雞蛋糕愛看書-2：在圖文書中找到接住情緒的手－「暖暖的自我陪伴」書單 (Readmoo讀墨贊助電子書)",
      "pub_date": "2020-08-01T10:01:17Z",
      "duration": "34:01",
      "image": "https://file.cdn.firstory.me/Image/ck60hb2c90wp50873k099tilh/1609833158694.png",
      "audio": {
        "url": "https://m.cdn.firstory.me/track/ck60hb2c90wp50873k099tilh/ckdbhk7p9fdky0856ojv1l9kw/https%3A%2F%2Fd3mww1g1pfq2pt.cloudfront.net%2FRecord%2Fck60hb2c90wp50873k099tilh%2F1596217399610.m4a?v=1609492648324",
        "type": "audio/mp4"
      },
      "permalink": "#podcast/objectObject"
    },
    {
      "slug": "2020Q3e04",
      "id": "[object Object]",
      "title": "[小鬱好不好] 你眼中的小鬱-1：草莓就該配挫冰好嗎！粉身碎骨後重生的草莓，莓生閃閃發光！ feat. 神祕大來賓",
      "pub_date": "2020-07-31T10:01:11Z",
      "duration": "33:50",
      "image": "https://file.cdn.firstory.me/Image/ck60hb2c90wp50873k099tilh/1595497362078.png",
      "audio": {
        "url": "https://m.cdn.firstory.me/track/ck60hb2c90wp50873k099tilh/ckda248eroryt08566xxg0a91/https%3A%2F%2Fd3mww1g1pfq2pt.cloudfront.net%2FRecord%2Fck60hb2c90wp50873k099tilh%2F1596085844985.m4a",
        "type": "audio/x-m4a"
      },
      "permalink": "#podcast/objectObject"
    }
  ]
}