{
  "type": "podcast",
  "show": {
    "id": "show",
    "title": "喂喂你還好不好",
    "author": "雞蛋糕 GCAKE",
    "image": "https://image.firstory-cdn.me/Avatar/ck60hb2c90wp50873k099tilh/1752846373303.jpg",
    "link": "https://wwhowbuhow.firstory.io",
    "language": "zh-Hant"
  },
  "page": 10,
  "page_size": 10,
  "total_items": 196,
  "total_pages": 20,
  "updated_at": "2025-10-11T12:21:13Z",
  "items": [
    {
      "slug": "2021Q2e11",
      "id": "[object Object]",
      "title": "「週五夜，加班夜」20210604直播存檔，聽友專屬好康請聽到最後",
      "pub_date": "2021-06-04T19:02:59Z",
      "duration": "02:10:14",
      "image": "https://file.cdn.firstory.me/Image/ck60hb2c90wp50873k099tilh/1626465305525.png",
      "audio": {
        "url": "https://m.cdn.firstory.me/track/ck60hb2c90wp50873k099tilh/ckpip3da7tj6a0870fui0ch6p/https%3A%2F%2Fd3mww1g1pfq2pt.cloudfront.net%2FRecord%2Fck60hb2c90wp50873k099tilh%2F1622833360711.mp3?v=1692872926975",
        "type": "audio/mpeg"
      },
      "permalink": "#podcast/objectObject"
    },
    {
      "slug": "2021Q2e10",
      "id": "[object Object]",
      "title": "[小鬱好不好] 雞蛋糕的疫情隔離取暖會：在宅工作的軟硬體建置，打造舒適的工作環境和心靈綠洲",
      "pub_date": "2021-05-21T10:47:51Z",
      "duration": "35:25",
      "image": "https://file.cdn.firstory.me/Image/ck60hb2c90wp50873k099tilh/1621594064246.png",
      "audio": {
        "url": "https://m.cdn.firstory.me/track/ck60hb2c90wp50873k099tilh/ckoy78p7kzsxw0875c9fbe26p/https%3A%2F%2Fd3mww1g1pfq2pt.cloudfront.net%2FRecord%2Fck60hb2c90wp50873k099tilh%2F1621594064246.mp3?v=1692872819992",
        "type": "audio/mpeg"
      },
      "permalink": "#podcast/objectObject"
    },
    {
      "slug": "2021Q2e09",
      "id": "[object Object]",
      "title": "[開槓好不好] 一個國防小故事聊聊打疫苗多重要，我們的共同敵人是病毒而不是彼此",
      "pub_date": "2021-05-13T22:30:33Z",
      "duration": "20:30",
      "image": "https://file.cdn.firstory.me/Image/ck60hb2c90wp50873k099tilh/1620937284462.png",
      "audio": {
        "url": "https://m.cdn.firstory.me/track/ck60hb2c90wp50873k099tilh/ckonc7lhd9d5608166pay5dpo/https%3A%2F%2Fd3mww1g1pfq2pt.cloudfront.net%2FRecord%2Fck60hb2c90wp50873k099tilh%2F1620937284462.mp3?v=1692872832480",
        "type": "audio/mpeg"
      },
      "permalink": "#podcast/objectObject"
    },
    {
      "slug": "2021Q2e08",
      "id": "[object Object]",
      "title": "[小鬱好不好] 小鬱亂入的生活-18：休養生息的四月，老母生日快樂，還有突襲抽獎",
      "pub_date": "2021-04-30T22:00:59Z",
      "duration": "14:58",
      "image": "https://file.cdn.firstory.me/Image/ck60hb2c90wp50873k099tilh/1619808222329.png",
      "audio": {
        "url": "https://m.cdn.firstory.me/track/ck60hb2c90wp50873k099tilh/cko4nzv5jk7at0829bngyys7p/https%3A%2F%2Fd3mww1g1pfq2pt.cloudfront.net%2FRecord%2Fck60hb2c90wp50873k099tilh%2F1619808222329.m4a?v=1619808227065",
        "type": "audio/mp4"
      },
      "permalink": "#podcast/objectObject"
    },
    {
      "slug": "2021Q1e07",
      "id": "[object Object]",
      "title": "[小鬱好不好] 小鬱亂入的生活-17：於是，我成為了房東眼中隨時都有危險的獨居租屋客",
      "pub_date": "2021-03-23T09:48:28Z",
      "duration": "57:46",
      "image": "https://file.cdn.firstory.me/Image/ck60hb2c90wp50873k099tilh/1616492897077.png",
      "audio": {
        "url": "https://m.cdn.firstory.me/track/ck60hb2c90wp50873k099tilh/ckmlu52ia8qsz0876s858k57n/https%3A%2F%2Fd3mww1g1pfq2pt.cloudfront.net%2FRecord%2Fck60hb2c90wp50873k099tilh%2F1616492897077.mp3?v=1693416499134",
        "type": "audio/mpeg"
      },
      "permalink": "#podcast/objectObject"
    },
    {
      "slug": "2021Q1e06",
      "id": "[object Object]",
      "title": "[草木燉雞] 你不是阿龍 You are NOT alone ft.草木談心",
      "pub_date": "2021-03-02T12:38:42Z",
      "duration": "35:04",
      "image": "https://file.cdn.firstory.me/Image/ck60hb2c90wp50873k099tilh/1614688711629.png",
      "audio": {
        "url": "https://m.cdn.firstory.me/track/ck60hb2c90wp50873k099tilh/cklrzz3aacjaw0996rbdo421y/https%3A%2F%2Fd3mww1g1pfq2pt.cloudfront.net%2FRecord%2Fck60hb2c90wp50873k099tilh%2F1614688711629.mp3?v=1666492144672",
        "type": "audio/mpeg"
      },
      "permalink": "#podcast/objectObject"
    },
    {
      "slug": "2021Q1e05",
      "id": "[object Object]",
      "title": "[小鬱好不好] 小鬱亂入的生活-16：關於自我肯定，我還需要一些時間來練習 ft. 《心理師想跟你說》蘇蘇、芙芙",
      "pub_date": "2021-03-02T09:50:47Z",
      "duration": "53:48",
      "image": "https://file.cdn.firstory.me/Image/ck60hb2c90wp50873k099tilh/1614678635881.png",
      "audio": {
        "url": "https://m.cdn.firstory.me/track/ck60hb2c90wp50873k099tilh/cklrtz5l5pclb08046072hnww/https%3A%2F%2Fd3mww1g1pfq2pt.cloudfront.net%2FRecord%2Fck60hb2c90wp50873k099tilh%2F1614678635881.mp3?v=1692878281529",
        "type": "audio/mpeg"
      },
      "permalink": "#podcast/objectObject"
    },
    {
      "slug": "2021Q1e04",
      "id": "[object Object]",
      "title": "[小鬱好不好] 醫生怎麽確定我是憂鬱症（還有各式精神疾病）？－小鬱QA#1",
      "pub_date": "2021-02-19T18:06:00Z",
      "duration": "20:46",
      "image": "https://file.cdn.firstory.me/Image/ck60hb2c90wp50873k099tilh/1613757938370.png",
      "audio": {
        "url": "https://m.cdn.firstory.me/track/ck60hb2c90wp50873k099tilh/cklcltacd2sgh0815ysysrpop/https%3A%2F%2Fd3mww1g1pfq2pt.cloudfront.net%2FRecord%2Fck60hb2c90wp50873k099tilh%2F1613757938370.m4a?v=1613757943347",
        "type": "audio/mp4"
      },
      "permalink": "#podcast/objectObject"
    },
    {
      "slug": "2021Q1e03",
      "id": "[object Object]",
      "title": "[說書好不好] 2021線上國際書展：閱讀不間斷！合作夥伴－Readmoo讀墨電子書、東美文化、天下生活出版",
      "pub_date": "2021-02-09T12:00:38Z",
      "duration": "29:30",
      "image": "https://file.cdn.firstory.me/Image/ck60hb2c90wp50873k099tilh/1612872030424.png",
      "audio": {
        "url": "https://m.cdn.firstory.me/track/ck60hb2c90wp50873k099tilh/ckkxyd9j97kgy0823t66snrkr/https%3A%2F%2Fd3mww1g1pfq2pt.cloudfront.net%2FRecord%2Fck60hb2c90wp50873k099tilh%2F1612872030424.mp3?v=1693416603616",
        "type": "audio/mpeg"
      },
      "permalink": "#podcast/objectObject"
    },
    {
      "slug": "2021Q1e02",
      "id": "[object Object]",
      "title": "[小鬱好不好] 跟心理師聊電影《靈魂急轉彎》ft. 草木談心",
      "pub_date": "2021-01-26T15:19:02Z",
      "duration": "43:12",
      "image": "https://file.cdn.firstory.me/Image/ck60hb2c90wp50873k099tilh/1611674332500.png",
      "audio": {
        "url": "https://m.cdn.firstory.me/track/ck60hb2c90wp50873k099tilh/ckke5agy15w6r0831t2uts58y/https%3A%2F%2Fd3mww1g1pfq2pt.cloudfront.net%2FRecord%2Fck60hb2c90wp50873k099tilh%2F1611674332500.m4a?v=1611674341590",
        "type": "audio/mp4"
      },
      "permalink": "#podcast/objectObject"
    }
  ]
}