{
  "type": "newsletter",
  "page": 1,
  "page_size": 10,
  "total_items": 11,
  "total_pages": 2,
  "updated_at": "2025-10-10T15:07:49+08:00",
  "items": [
    {
      "id": "https://wwhowbuhow.substack.com/p/companion-squad",
      "slug": "companion-squad",
      "title": "我與我的「陪伴者小隊」：報平安的日常",
      "pub_date": "2025-08-12T12:31:46+08:00",
      "link": "https://wwhowbuhow.substack.com/p/companion-squad",
      "cover": "https://substackcdn.com/image/fetch/$s_!3k1u!,w_1456,c_limit,f_auto,q_auto:good,fl_progressive:steep/https%3A%2F%2Fsubstack-post-media.s3.amazonaws.com%2Fpublic%2Fimages%2F87c599a4-10b3-4606-a35d-f2726d3a1e63_1344x768.webp",
      "has_voiceover": false,
      "tags": [],
      "permalink": "#newsletter/companion-squad"
    },
    {
      "id": "https://wwhowbuhow.substack.com/p/gcake-bipolar",
      "slug": "gcake-bipolar",
      "title": "好久不見，雞蛋糕以「現役躁鬱症患者」恢復更新了",
      "pub_date": "2025-08-04T19:08:27+08:00",
      "link": "https://wwhowbuhow.substack.com/p/gcake-bipolar",
      "cover": "https://substackcdn.com/image/fetch/$s_!2s4G!,w_1456,c_limit,f_auto,q_auto:good,fl_progressive:steep/https%3A%2F%2Fsubstack-post-media.s3.amazonaws.com%2Fpublic%2Fimages%2F1b4b39f6-d741-4cb2-9e13-a7d5870b0fc7_1344x768.jpeg",
      "has_voiceover": false,
      "tags": [],
      "permalink": "#newsletter/gcake-bipolar"
    },
    {
      "id": "https://wwhowbuhow.substack.com/p/work-as-blockchain-instructor",
      "slug": "work-as-blockchain-instructor",
      "title": "睽違七年，我開始工作了",
      "pub_date": "2024-10-23T17:35:57+08:00",
      "link": "https://wwhowbuhow.substack.com/p/work-as-blockchain-instructor",
      "cover": "https://substackcdn.com/image/fetch/$s_!W9fe!,w_1456,c_limit,f_auto,q_auto:good,fl_progressive:steep/https%3A%2F%2Fsubstack-post-media.s3.amazonaws.com%2Fpublic%2Fimages%2Fbb746c4b-ce89-49ed-8a0b-903a5a2d339b_1344x768.jpeg",
      "has_voiceover": false,
      "tags": [],
      "permalink": "#newsletter/work-as-blockchain-instructor"
    },
    {
      "id": "https://wwhowbuhow.substack.com/p/power-of-speaking-up",
      "slug": "power-of-speaking-up",
      "title": "公開發聲是為了阻止不對的事繼續發生",
      "pub_date": "2024-10-22T09:00:00+08:00",
      "link": "https://wwhowbuhow.substack.com/p/power-of-speaking-up",
      "cover": "https://substackcdn.com/image/fetch/$s_!lPfk!,w_1456,c_limit,f_auto,q_auto:good,fl_progressive:steep/https%3A%2F%2Fsubstack-post-media.s3.amazonaws.com%2Fpublic%2Fimages%2F57b51af5-9fa1-44f1-92a5-4a909f34704f_1344x768.jpeg",
      "has_voiceover": false,
      "tags": [],
      "permalink": "#newsletter/power-of-speaking-up"
    },
    {
      "id": "https://wwhowbuhow.substack.com/p/depression-symbols-in-daily-life",
      "slug": "depression-symbols-in-daily-life",
      "title": "憂鬱症常見的比喻",
      "pub_date": "2024-10-15T09:00:01+08:00",
      "link": "https://wwhowbuhow.substack.com/p/depression-symbols-in-daily-life",
      "cover": "https://substackcdn.com/image/fetch/$s_!uPOt!,w_1456,c_limit,f_auto,q_auto:good,fl_progressive:steep/https%3A%2F%2Fsubstack-post-media.s3.amazonaws.com%2Fpublic%2Fimages%2F5de3be4c-ce5f-4450-b994-c2204373fcab_1344x768.jpeg",
      "has_voiceover": false,
      "tags": [],
      "permalink": "#newsletter/depression-symbols-in-daily-life"
    },
    {
      "id": "https://wwhowbuhow.substack.com/p/medium-to-paragraph-2",
      "slug": "medium-to-paragraph-2",
      "title": "教學：如何將 Medium 文章搬家到 Paragraph.xyz",
      "pub_date": "2024-10-04T08:00:00+08:00",
      "link": "https://wwhowbuhow.substack.com/p/medium-to-paragraph-2",
      "cover": "https://substackcdn.com/image/fetch/$s_!uIx5!,w_1456,c_limit,f_auto,q_auto:good,fl_progressive:steep/https%3A%2F%2Fsubstack-post-media.s3.amazonaws.com%2Fpublic%2Fimages%2F30a4c00b-3c8a-4a97-b432-005e3b4538bb_1344x768.jpeg",
      "has_voiceover": false,
      "tags": [],
      "permalink": "#newsletter/medium-to-paragraph-2"
    },
    {
      "id": "https://wwhowbuhow.substack.com/p/bestyear2024",
      "slug": "bestyear2024",
      "title": "最好的一年",
      "pub_date": "2024-09-24T23:13:29+08:00",
      "link": "https://wwhowbuhow.substack.com/p/bestyear2024",
      "cover": "https://substackcdn.com/image/fetch/$s_!-boi!,w_1456,c_limit,f_auto,q_auto:good,fl_progressive:steep/https%3A%2F%2Fsubstack-post-media.s3.amazonaws.com%2Fpublic%2Fimages%2F998c110d-bf52-4f11-965c-f2aecbea6f07_1344x768.jpeg",
      "has_voiceover": false,
      "tags": [],
      "permalink": "#newsletter/bestyear2024"
    },
    {
      "id": "https://wwhowbuhow.substack.com/p/diagnosis-is-the-first-step",
      "slug": "diagnosis-is-the-first-step",
      "title": "精神疾病診斷重要嗎？把治療生活過好，診斷只是剛開始",
      "pub_date": "2024-06-21T08:00:00+08:00",
      "link": "https://wwhowbuhow.substack.com/p/diagnosis-is-the-first-step",
      "cover": "https://substackcdn.com/image/fetch/$s_!1jpz!,w_1456,c_limit,f_auto,q_auto:good,fl_progressive:steep/https%3A%2F%2Fsubstack-post-media.s3.amazonaws.com%2Fpublic%2Fimages%2F5681e8d2-3078-4a46-86bc-5e73d5e365f7_1792x1024.webp",
      "has_voiceover": false,
      "tags": [],
      "permalink": "#newsletter/diagnosis-is-the-first-step"
    },
    {
      "id": "https://wwhowbuhow.substack.com/p/financial-plan",
      "slug": "financial-plan",
      "title": "十年財務規劃記錄：儲蓄、大盤 ETF、信用卡、債務整合、加密貨幣",
      "pub_date": "2024-06-11T16:17:00+08:00",
      "link": "https://wwhowbuhow.substack.com/p/financial-plan",
      "cover": "https://substackcdn.com/image/fetch/$s_!YWXt!,w_1456,c_limit,f_auto,q_auto:good,fl_progressive:steep/https%3A%2F%2Fsubstack-post-media.s3.amazonaws.com%2Fpublic%2Fimages%2F62f6d010-22e3-4eee-a8a5-5ae05683d2a5_2688x1344.jpeg",
      "has_voiceover": false,
      "tags": [],
      "permalink": "#newsletter/financial-plan"
    },
    {
      "id": "https://wwhowbuhow.substack.com/p/ai-tools",
      "slug": "ai-tools",
      "title": "利用AI工具，撬動生產力槓桿",
      "pub_date": "2024-06-10T08:00:00+08:00",
      "link": "https://wwhowbuhow.substack.com/p/ai-tools",
      "cover": "https://substackcdn.com/image/fetch/$s_!IRTN!,w_1456,c_limit,f_auto,q_auto:good,fl_progressive:steep/https%3A%2F%2Fsubstack-post-media.s3.amazonaws.com%2Fpublic%2Fimages%2F4de9c9bd-30bf-49f0-ac88-0ce287e4d124_1280x720.jpeg",
      "has_voiceover": false,
      "tags": [],
      "permalink": "#newsletter/ai-tools"
    }
  ]
}