{
  "type": "newsletter",
  "page": 2,
  "page_size": 10,
  "total_items": 20,
  "total_pages": 2,
  "updated_at": "2025-10-10T15:08:02+08:00",
  "items": [
    {
      "id": "https://taiweb3.substack.com/p/samson-mow",
      "slug": "samson-mow",
      "title": "從比特幣城市到國家儲備：Samson Mow 的區塊鏈問題解決策略",
      "pub_date": "2024-11-12T09:00:00+08:00",
      "link": "https://taiweb3.substack.com/p/samson-mow",
      "cover": "https://substackcdn.com/image/fetch/$s_!qtnX!,w_256,c_limit,f_auto,q_auto:good,fl_progressive:steep/https%3A%2F%2Fsubstack-post-media.s3.amazonaws.com%2Fpublic%2Fimages%2F9200ab35-d9cb-44c9-aea2-623f88d32ba1_1024x1024.png",
      "has_voiceover": false,
      "tags": [],
      "permalink": "#newsletter/samson-mow"
    },
    {
      "id": "https://taiweb3.substack.com/p/the-great-reset-and-the-rise-of-bitcoin-2022-1",
      "slug": "the-great-reset-and-the-rise-of-bitcoin-2022-1",
      "title": "破解比特幣耗能爭議——問題、解決方案與未來發展",
      "pub_date": "2024-11-11T09:00:00+08:00",
      "link": "https://taiweb3.substack.com/p/the-great-reset-and-the-rise-of-bitcoin-2022-1",
      "cover": "https://substackcdn.com/image/fetch/$s_!qtnX!,w_256,c_limit,f_auto,q_auto:good,fl_progressive:steep/https%3A%2F%2Fsubstack-post-media.s3.amazonaws.com%2Fpublic%2Fimages%2F9200ab35-d9cb-44c9-aea2-623f88d32ba1_1024x1024.png",
      "has_voiceover": false,
      "tags": [],
      "permalink": "#newsletter/the-great-reset-and-the-rise-of-bitcoin-2022-1"
    },
    {
      "id": "https://taiweb3.substack.com/p/bitcoin-beyond-the-bubble-2018",
      "slug": "bitcoin-beyond-the-bubble-2018",
      "title": "數位貨幣革命：比特幣如何改變全球金融",
      "pub_date": "2024-11-08T09:00:00+08:00",
      "link": "https://taiweb3.substack.com/p/bitcoin-beyond-the-bubble-2018",
      "cover": "https://substackcdn.com/image/fetch/$s_!qtnX!,w_256,c_limit,f_auto,q_auto:good,fl_progressive:steep/https%3A%2F%2Fsubstack-post-media.s3.amazonaws.com%2Fpublic%2Fimages%2F9200ab35-d9cb-44c9-aea2-623f88d32ba1_1024x1024.png",
      "has_voiceover": false,
      "tags": [],
      "permalink": "#newsletter/bitcoin-beyond-the-bubble-2018"
    },
    {
      "id": "https://taiweb3.substack.com/p/the-rise-and-rise-of-bitcoin-2014",
      "slug": "the-rise-and-rise-of-bitcoin-2014",
      "title": "比特幣的崛起：數位貨幣從無名到主流",
      "pub_date": "2024-11-07T09:00:00+08:00",
      "link": "https://taiweb3.substack.com/p/the-rise-and-rise-of-bitcoin-2014",
      "cover": "https://substackcdn.com/image/fetch/$s_!qtnX!,w_256,c_limit,f_auto,q_auto:good,fl_progressive:steep/https%3A%2F%2Fsubstack-post-media.s3.amazonaws.com%2Fpublic%2Fimages%2F9200ab35-d9cb-44c9-aea2-623f88d32ba1_1024x1024.png",
      "has_voiceover": false,
      "tags": [],
      "permalink": "#newsletter/the-rise-and-rise-of-bitcoin-2014"
    },
    {
      "id": "https://taiweb3.substack.com/p/pow-vs-pos-blockchain-consensus",
      "slug": "pow-vs-pos-blockchain-consensus",
      "title": "從PoW到PoS，區塊鏈如何透過共識機制解決信任問題？",
      "pub_date": "2024-11-06T09:00:00+08:00",
      "link": "https://taiweb3.substack.com/p/pow-vs-pos-blockchain-consensus",
      "cover": "https://substackcdn.com/image/fetch/$s_!KUrx!,w_1456,c_limit,f_auto,q_auto:good,fl_progressive:steep/https%3A%2F%2Fsubstack-post-media.s3.amazonaws.com%2Fpublic%2Fimages%2F02fee595-3c2c-43b9-ab4d-515b4a4e5b0e_1344x768.webp",
      "has_voiceover": false,
      "tags": [],
      "permalink": "#newsletter/pow-vs-pos-blockchain-consensus"
    },
    {
      "id": "https://taiweb3.substack.com/p/cardano-midnight-privatechain",
      "slug": "cardano-midnight-privatechain",
      "title": "邁向安全且合規的區塊鏈環境：Cardano ($ADA)與Midnight ($DUST)的隱私實踐",
      "pub_date": "2024-11-05T09:00:00+08:00",
      "link": "https://taiweb3.substack.com/p/cardano-midnight-privatechain",
      "cover": "https://substackcdn.com/image/fetch/$s_!qtnX!,w_256,c_limit,f_auto,q_auto:good,fl_progressive:steep/https%3A%2F%2Fsubstack-post-media.s3.amazonaws.com%2Fpublic%2Fimages%2F9200ab35-d9cb-44c9-aea2-623f88d32ba1_1024x1024.png",
      "has_voiceover": false,
      "tags": [],
      "permalink": "#newsletter/cardano-midnight-privatechain"
    },
    {
      "id": "https://taiweb3.substack.com/p/zkp",
      "slug": "zkp",
      "title": "隱私 vs. 透明：區塊鏈中的零知識證明與其他解決方案",
      "pub_date": "2024-11-04T09:00:00+08:00",
      "link": "https://taiweb3.substack.com/p/zkp",
      "cover": "https://substackcdn.com/image/fetch/$s_!VCJU!,w_1456,c_limit,f_auto,q_auto:good,fl_progressive:steep/https%3A%2F%2Fsubstack-post-media.s3.amazonaws.com%2Fpublic%2Fimages%2Fc4ef1aab-6efb-41ba-8d90-95c4bac089fb_3584x1792.jpeg",
      "has_voiceover": false,
      "tags": [],
      "permalink": "#newsletter/zkp"
    },
    {
      "id": "https://taiweb3.substack.com/p/cardano-summit-2023-key-takeaways",
      "slug": "cardano-summit-2023-key-takeaways",
      "title": "2023年後的Cardano ($ADA)：解決擴展性、治理與合規問題的策略",
      "pub_date": "2024-11-01T09:00:03+08:00",
      "link": "https://taiweb3.substack.com/p/cardano-summit-2023-key-takeaways",
      "cover": "https://substackcdn.com/image/fetch/$s_!qtnX!,w_256,c_limit,f_auto,q_auto:good,fl_progressive:steep/https%3A%2F%2Fsubstack-post-media.s3.amazonaws.com%2Fpublic%2Fimages%2F9200ab35-d9cb-44c9-aea2-623f88d32ba1_1024x1024.png",
      "has_voiceover": false,
      "tags": [],
      "permalink": "#newsletter/cardano-summit-2023-key-takeaways"
    },
    {
      "id": "https://taiweb3.substack.com/p/cardano-scalability-governance-interoperability",
      "slug": "cardano-scalability-governance-interoperability",
      "title": "Cardano ($ADA)：從過去到未來的技術演進與挑戰解析 2023",
      "pub_date": "2024-10-31T09:00:00+08:00",
      "link": "https://taiweb3.substack.com/p/cardano-scalability-governance-interoperability",
      "cover": "https://substackcdn.com/image/fetch/$s_!oRjL!,w_1456,c_limit,f_auto,q_auto:good,fl_progressive:steep/https%3A%2F%2Fsubstack-post-media.s3.amazonaws.com%2Fpublic%2Fimages%2F9c1b4c7a-2977-4ab8-b943-ef0dbe940404_400x400.png",
      "has_voiceover": false,
      "tags": [],
      "permalink": "#newsletter/cardano-scalability-governance-interoperability"
    },
    {
      "id": "https://taiweb3.substack.com/p/cardano-surviving-2022-crypto-winter",
      "slug": "cardano-surviving-2022-crypto-winter",
      "title": "2022 年的區塊鏈轉折點：從熊市中看 Cardano ($ADA) 的穩健策略",
      "pub_date": "2024-10-30T09:00:00+08:00",
      "link": "https://taiweb3.substack.com/p/cardano-surviving-2022-crypto-winter",
      "cover": "https://substackcdn.com/image/fetch/$s_!qtnX!,w_256,c_limit,f_auto,q_auto:good,fl_progressive:steep/https%3A%2F%2Fsubstack-post-media.s3.amazonaws.com%2Fpublic%2Fimages%2F9200ab35-d9cb-44c9-aea2-623f88d32ba1_1024x1024.png",
      "has_voiceover": false,
      "tags": [],
      "permalink": "#newsletter/cardano-surviving-2022-crypto-winter"
    }
  ]
}