{
  "type": "newsletter",
  "page": 1,
  "page_size": 10,
  "total_items": 20,
  "total_pages": 2,
  "updated_at": "2025-10-12T12:21:28Z",
  "items": [
    {
      "id": "gURdlZWGgAZT0U1A3Ptu",
      "slug": "companion-squad",
      "title": "我與我的「陪伴者小隊」：報平安的日常",
      "pub_date": "2025-08-12T04:23:13Z",
      "link": "https://paragraph.com/@wwhowbuhow/companion-squad",
      "cover": "https://storage.googleapis.com/papyrus_images/12383f99c3a04c56333f21efbbfec98a.jpg",
      "has_voiceover": false,
      "tags": [],
      "permalink": "#newsletter/companion-squad"
    },
    {
      "id": "uLPK4wVAqxkLmLsUAgWu",
      "slug": "gcake-bipolar",
      "title": "好久不見，雞蛋糕以「現役躁鬱症患者」恢復更新了",
      "pub_date": "2025-08-04T11:15:27Z",
      "link": "https://paragraph.com/@wwhowbuhow/gcake-bipolar",
      "cover": "https://storage.googleapis.com/papyrus_images/30217729933740cf621edee473fa4f65.png",
      "has_voiceover": false,
      "tags": [],
      "permalink": "#newsletter/gcake-bipolar"
    },
    {
      "id": "4XdIvAUe3TTiLlHZdyby",
      "slug": "work-as-blockchain-instructor",
      "title": "睽違七年，我開始工作了",
      "pub_date": "2024-10-23T09:35:57Z",
      "link": "https://paragraph.com/@wwhowbuhow/work-as-blockchain-instructor",
      "cover": "https://storage.googleapis.com/papyrus_images/d3a09d2b57bedfc38a5558606c11ffdc.png",
      "has_voiceover": false,
      "tags": [],
      "permalink": "#newsletter/work-as-blockchain-instructor"
    },
    {
      "id": "o5zBfBEHvWY1MGx0YQWr",
      "slug": "power-of-speaking-up",
      "title": "公開發聲是為了阻止不對的事繼續發生",
      "pub_date": "2024-10-22T01:00:00Z",
      "link": "https://paragraph.com/@wwhowbuhow/power-of-speaking-up",
      "cover": "https://paragraph.xyz/editor/callout/information-icon.png",
      "has_voiceover": false,
      "tags": [],
      "permalink": "#newsletter/power-of-speaking-up"
    },
    {
      "id": "6pS3X6Sib52aHiPL4Oxy",
      "slug": "depression-symbols-in-daily-life",
      "title": "憂鬱症常見的比喻",
      "pub_date": "2024-10-15T01:00:01Z",
      "link": "https://paragraph.com/@wwhowbuhow/depression-symbols-in-daily-life",
      "cover": "https://paragraph.xyz/editor/callout/information-icon.png",
      "has_voiceover": false,
      "tags": [],
      "permalink": "#newsletter/depression-symbols-in-daily-life"
    },
    {
      "id": "EKOEi0ixQKSWbcH4WWQj",
      "slug": "medium-to-paragraph-2",
      "title": "教學：如何將 Medium 文章搬家到 Paragraph.xyz",
      "pub_date": "2024-10-04T00:00:00Z",
      "link": "https://paragraph.com/@wwhowbuhow/medium-to-paragraph-2",
      "cover": "https://storage.googleapis.com/papyrus_images/0e4cea71b09b9ef0d0f76bae60fa807b.png",
      "has_voiceover": false,
      "tags": [],
      "permalink": "#newsletter/medium-to-paragraph-2"
    },
    {
      "id": "8dCO3HUIH3WQPO6W1cr0",
      "slug": "bestyear2024",
      "title": "最好的一年",
      "pub_date": "2024-09-24T15:13:29Z",
      "link": "https://paragraph.com/@wwhowbuhow/bestyear2024",
      "cover": "https://storage.googleapis.com/papyrus_images/9cb7dca560ba097097ea429a1f2c7d27.png",
      "has_voiceover": false,
      "tags": [],
      "permalink": "#newsletter/bestyear2024"
    },
    {
      "id": "c1kq7NKac6Xiqc5xz6Hn",
      "slug": "diagnosis-is-the-first-step",
      "title": "精神疾病診斷重要嗎？把治療生活過好，診斷只是剛開始",
      "pub_date": "2024-06-21T00:00:00Z",
      "link": "https://paragraph.com/@wwhowbuhow/diagnosis-is-the-first-step",
      "cover": "https://storage.googleapis.com/papyrus_images/6e774711ecc6d38c1e6d9fe4994788c7.webp",
      "has_voiceover": false,
      "tags": [],
      "permalink": "#newsletter/diagnosis-is-the-first-step"
    },
    {
      "id": "Iv22JzyQtM6a7u6LMgpF",
      "slug": "ai-tools",
      "title": "利用AI工具，撬動生產力槓桿",
      "pub_date": "2024-06-10T00:00:00Z",
      "link": "https://paragraph.com/@wwhowbuhow/ai-tools",
      "cover": "https://storage.googleapis.com/papyrus_images/606af1fb4ed5b58e29c8ac600754cfa4.jpg",
      "has_voiceover": false,
      "tags": [
        "ai"
      ],
      "permalink": "#newsletter/ai-tools"
    },
    {
      "id": "JthULzLChTTIVTCig4vs",
      "slug": "welcome",
      "title": "嗨嗨，歡迎來到《喂喂好朋友抱報》",
      "pub_date": "2024-05-18T00:00:00Z",
      "link": "https://paragraph.com/@wwhowbuhow/welcome",
      "cover": "https://storage.googleapis.com/likecoin-foundation.appspot.com/likecoin_store_user_ww-howbuhow_main?GoogleAccessId=firebase-adminsdk-eyzut%40likecoin-foundation.iam.gserviceaccount.com&amp;Expires=2430432000&amp;Signature=t30NmJlXHXkp5D9oguNe930FgLNqvoJ57daTD87nh4WMqLVNr7shsjKMQNE5m6r2Rpe0qms6hzahObXrbMsAvKNXpklL%2F1D3xsz6KWnDaDnN89vnxg0JGGbqTeFl9u%2BeU%2Fxa8rvB7HglpMDTqtsUSAFAlL3R18Nl0v%2BYWHkJR3EXBxcU4%2BkmUBZISbLQDXYP%2BtxVWUzeP4TfuBUB6IYK9ocMPEv78TnZ3NZ0KOxe0wHZRI2BrsD0RkqPzGQaiUlvAjRIX68T2mvvNysqw7YN9NyDwWJ2VzTvuJDBOMuQzSp%2BhUjqX%2BtTers9PdK3A%2Fu9v80tZ6qPO8lxch2jEzaAcg%3D%3D",
      "has_voiceover": false,
      "tags": [],
      "permalink": "#newsletter/welcome"
    }
  ]
}